<svg width="594" height="379" viewBox="0 0 594 379" fill="none" xmlns="http://www.w3.org/2000/svg">
<path fill-rule="evenodd" clip-rule="evenodd" d="M230.103 65.8351C230.103 65.8351 221.005 60.4901 216.501 67.6951C211.997 74.8991 224.827 84.0702 232.472 82.5958C240.117 81.1213 239.963 69.8166 230.103 65.8351Z" fill="#E3CAB8"/>
<path fill-rule="evenodd" clip-rule="evenodd" d="M559.617 174.949C559.617 174.949 561.595 158.311 548.248 156.349C534.9 154.386 529.732 178.891 536.747 189.071C543.761 199.252 560.104 191.826 559.617 174.949Z" fill="#E3CAB8"/>
<path fill-rule="evenodd" clip-rule="evenodd" d="M201.86 0.683146C201.86 0.305983 202.165 0 202.543 0H206.91C207.288 0 207.593 0.305983 207.593 0.683146C207.593 1.05938 207.288 1.36537 206.91 1.36537H202.543C202.165 1.36537 201.86 1.05938 201.86 0.683146ZM190.941 0.683146C190.941 0.305983 191.246 0 191.623 0H195.991C196.367 0 196.673 0.305983 196.673 0.683146C196.673 1.05938 196.367 1.36537 195.991 1.36537H191.623C191.246 1.36537 190.941 1.05938 190.941 0.683146ZM180.021 0.683146C180.021 0.305983 180.327 0 180.703 0H185.072C185.448 0 185.754 0.305983 185.754 0.683146C185.754 1.05938 185.448 1.36537 185.072 1.36537H180.703C180.327 1.36537 180.021 1.05938 180.021 0.683146ZM169.102 0.683146C169.102 0.305983 169.407 0 169.784 0H174.152C174.529 0 174.834 0.305983 174.834 0.683146C174.834 1.05938 174.529 1.36537 174.152 1.36537H169.784C169.407 1.36537 169.102 1.05938 169.102 0.683146ZM158.182 0.683146C158.182 0.305983 158.488 0 158.864 0H163.233C163.609 0 163.915 0.305983 163.915 0.683146C163.915 1.05938 163.609 1.36537 163.233 1.36537H158.864C158.488 1.36537 158.182 1.05938 158.182 0.683146ZM147.262 0.683146C147.262 0.305983 147.567 0 147.945 0H152.312C152.69 0 152.995 0.305983 152.995 0.683146C152.995 1.05938 152.69 1.36537 152.312 1.36537H147.945C147.567 1.36537 147.262 1.05938 147.262 0.683146ZM136.342 0.683146C136.342 0.305983 136.648 0 137.024 0H141.393C141.769 0 142.075 0.305983 142.075 0.683146C142.075 1.05938 141.769 1.36537 141.393 1.36537H137.024C136.648 1.36537 136.342 1.05938 136.342 0.683146ZM125.423 0.683146C125.423 0.305983 125.728 0 126.105 0H130.473C130.85 0 131.155 0.305983 131.155 0.683146C131.155 1.05938 130.85 1.36537 130.473 1.36537H126.105C125.728 1.36537 125.423 1.05938 125.423 0.683146ZM114.503 0.683146C114.503 0.305983 114.809 0 115.185 0H119.554C119.93 0 120.236 0.305983 120.236 0.683146C120.236 1.05938 119.93 1.36537 119.554 1.36537H115.185C114.809 1.36537 114.503 1.05938 114.503 0.683146ZM103.583 0.683146C103.583 0.305983 103.889 0 104.266 0H108.635C109.011 0 109.317 0.305983 109.317 0.683146C109.317 1.05938 109.011 1.36537 108.635 1.36537H104.266C103.889 1.36537 103.583 1.05938 103.583 0.683146ZM92.6643 0.683146C92.6643 0.305983 92.9693 0 93.3465 0H97.7144C98.0915 0 98.3966 0.305983 98.3966 0.683146C98.3966 1.05938 98.0915 1.36537 97.7144 1.36537H93.3465C92.9693 1.36537 92.6643 1.05938 92.6643 0.683146ZM81.7441 0.683146C81.7441 0.305983 82.0501 0 82.4263 0H86.7951C87.1713 0 87.4773 0.305983 87.4773 0.683146C87.4773 1.05938 87.1713 1.36537 86.7951 1.36537H82.4263C82.0501 1.36537 81.7441 1.05938 81.7441 0.683146ZM70.8248 0.683146C70.8248 0.305983 71.1299 0 71.5071 0H75.8749C76.2521 0 76.5572 0.305983 76.5572 0.683146C76.5572 1.05938 76.2521 1.36537 75.8749 1.36537H71.5071C71.1299 1.36537 70.8248 1.05938 70.8248 0.683146ZM59.9047 0.683146C59.9047 0.305983 60.2107 0 60.5869 0H64.9557C65.3319 0 65.6379 0.305983 65.6379 0.683146C65.6379 1.05938 65.3319 1.36537 64.9557 1.36537H60.5869C60.2107 1.36537 59.9047 1.05938 59.9047 0.683146ZM48.9854 0.683146C48.9854 0.305983 49.2905 0 49.6676 0H54.0355C54.4127 0 54.7178 0.305983 54.7178 0.683146C54.7178 1.05938 54.4127 1.36537 54.0355 1.36537H49.6676C49.2905 1.36537 48.9854 1.05938 48.9854 0.683146ZM38.0653 0.683146C38.0653 0.305983 38.3712 0 38.7475 0H43.1163C43.4925 0 43.7985 0.305983 43.7985 0.683146C43.7985 1.05938 43.4925 1.36537 43.1163 1.36537H38.7475C38.3712 1.36537 38.0653 1.05938 38.0653 0.683146ZM27.146 0.683146C27.146 0.305983 27.4511 0 27.8282 0H32.1961C32.5733 0 32.8783 0.305983 32.8783 0.683146C32.8783 1.05938 32.5733 1.36537 32.1961 1.36537H27.8282C27.4511 1.36537 27.146 1.05938 27.146 0.683146ZM16.2268 0.683146C16.2268 0.305983 16.5318 0 16.909 0H21.2769C21.6531 0 21.9591 0.305983 21.9591 0.683146C21.9591 1.05938 21.6531 1.36537 21.2769 1.36537H16.909C16.5318 1.36537 16.2268 1.05938 16.2268 0.683146ZM217.769 1.41991C217.357 1.38386 216.938 1.36537 216.521 1.36537H213.463C213.086 1.36537 212.78 1.05938 212.78 0.683146C212.78 0.305983 213.086 0 213.463 0H216.521C216.977 0 217.438 0.0203372 217.889 0.0600873C218.264 0.0933664 218.542 0.424309 218.508 0.800547C218.477 1.15552 218.179 1.42268 217.83 1.42268L217.769 1.41991ZM6.31053 4.63412C6.06555 4.34662 6.10068 3.91584 6.38818 3.67179C7.55572 2.68082 8.85545 1.87195 10.2523 1.26645C10.598 1.1167 11.0001 1.27477 11.1499 1.62051C11.2996 1.96716 11.1415 2.36836 10.7958 2.51904C9.52196 3.07092 8.33593 3.80861 7.27192 4.71269C7.14343 4.82177 6.98628 4.87446 6.83097 4.87446C6.63685 4.87446 6.44549 4.79312 6.31053 4.63412ZM226.892 5.92738C225.948 4.90127 224.863 4.02215 223.666 3.31497C223.34 3.12269 223.233 2.70485 223.425 2.38038C223.617 2.05591 224.036 1.94775 224.36 2.14003C225.673 2.91562 226.862 3.87886 227.897 5.00388C228.152 5.28121 228.134 5.71384 227.856 5.96805C227.725 6.08915 227.559 6.14831 227.395 6.14831C227.21 6.14831 227.026 6.07436 226.892 5.92738ZM1.64128 14.2398C1.26782 14.1917 1.00343 13.8497 1.0515 13.4762C1.24563 11.9601 1.66347 10.4866 2.29392 9.09536C2.45015 8.7524 2.85412 8.59988 3.198 8.7561C3.54096 8.9114 3.69257 9.3163 3.53819 9.65926C2.9632 10.9266 2.58234 12.2689 2.40485 13.6491C2.3614 13.9939 2.06744 14.2453 1.7291 14.2453L1.64128 14.2398ZM230.61 15.3999C230.604 14.0022 230.394 12.622 229.984 11.2983C229.873 10.9377 230.075 10.5559 230.434 10.4441C230.794 10.3332 231.177 10.5347 231.288 10.8952C231.738 12.3475 231.969 13.8617 231.974 15.3944C231.976 15.7706 231.672 16.0775 231.295 16.0794H231.292C230.917 16.0794 230.611 15.7752 230.61 15.3999ZM0.925781 24.4768V20.1089C0.925781 19.7317 1.23084 19.4267 1.608 19.4267C1.98517 19.4267 2.29022 19.7317 2.29022 20.1089V24.4768C2.29022 24.8539 1.98517 25.159 1.608 25.159C1.23084 25.159 0.925781 24.8539 0.925781 24.4768ZM230.61 26.3164V21.9485C230.61 21.5713 230.915 21.2663 231.292 21.2663C231.669 21.2663 231.974 21.5713 231.974 21.9485V26.3164C231.974 26.6935 231.669 26.9986 231.292 26.9986C230.915 26.9986 230.61 26.6935 230.61 26.3164ZM0.925781 35.396V31.0281C0.925781 30.6519 1.23084 30.3459 1.608 30.3459C1.98517 30.3459 2.29022 30.6519 2.29022 31.0281V35.396C2.29022 35.7732 1.98517 36.0792 1.608 36.0792C1.23084 36.0792 0.925781 35.7732 0.925781 35.396ZM230.61 37.2365V32.8687C230.61 32.4915 230.915 32.1855 231.292 32.1855C231.669 32.1855 231.974 32.4915 231.974 32.8687V37.2365C231.974 37.6128 231.669 37.9188 231.292 37.9188C230.915 37.9188 230.61 37.6128 230.61 37.2365ZM0.925781 46.3162V41.9483C0.925781 41.5712 1.23084 41.2661 1.608 41.2661C1.98517 41.2661 2.29022 41.5712 2.29022 41.9483V46.3162C2.29022 46.6934 1.98517 46.9984 1.608 46.9984C1.23084 46.9984 0.925781 46.6934 0.925781 46.3162ZM230.61 48.1558V43.7879C230.61 43.4107 230.915 43.1057 231.292 43.1057C231.669 43.1057 231.974 43.4107 231.974 43.7879V48.1558C231.974 48.533 231.669 48.838 231.292 48.838C230.915 48.838 230.61 48.533 230.61 48.1558ZM0.925781 57.2354V52.8676C0.925781 52.4913 1.23084 52.1853 1.608 52.1853C1.98517 52.1853 2.29022 52.4913 2.29022 52.8676V57.2354C2.29022 57.6126 1.98517 57.9177 1.608 57.9177C1.23084 57.9177 0.925781 57.6126 0.925781 57.2354ZM230.61 59.076V54.7081C230.61 54.3309 230.915 54.0249 231.292 54.0249C231.669 54.0249 231.974 54.3309 231.974 54.7081V59.076C231.974 59.4522 231.669 59.7582 231.292 59.7582C230.915 59.7582 230.61 59.4522 230.61 59.076ZM0.925781 68.1547V63.7877C0.925781 63.4106 1.23084 63.1055 1.608 63.1055C1.98517 63.1055 2.29022 63.4106 2.29022 63.7877V68.1547C2.29022 68.5328 1.98517 68.8378 1.608 68.8378C1.23084 68.8378 0.925781 68.5328 0.925781 68.1547ZM230.61 69.9952V65.6273C230.61 65.2502 230.915 64.9451 231.292 64.9451C231.669 64.9451 231.974 65.2502 231.974 65.6273V69.9952C231.974 70.3724 231.669 70.6774 231.292 70.6774C230.915 70.6774 230.61 70.3724 230.61 69.9952ZM0.925781 79.0749V74.707C0.925781 74.3298 1.23084 74.0247 1.608 74.0247C1.98517 74.0247 2.29022 74.3298 2.29022 74.707V79.0749C2.29022 79.452 1.98517 79.7571 1.608 79.7571C1.23084 79.7571 0.925781 79.452 0.925781 79.0749ZM230.61 80.9154V76.5475C230.61 76.1703 230.915 75.8643 231.292 75.8643C231.669 75.8643 231.974 76.1703 231.974 76.5475V80.9154C231.974 81.2916 231.669 81.5976 231.292 81.5976C230.915 81.5976 230.61 81.2916 230.61 80.9154ZM0.925781 89.9941V85.6262C0.925781 85.25 1.23084 84.944 1.608 84.944C1.98517 84.944 2.29022 85.25 2.29022 85.6262V89.9941C2.29022 90.3713 1.98517 90.6772 1.608 90.6772C1.23084 90.6772 0.925781 90.3713 0.925781 89.9941ZM230.61 91.8346V87.4667C230.61 87.0896 230.915 86.7845 231.292 86.7845C231.669 86.7845 231.974 87.0896 231.974 87.4667V91.8346C231.974 92.2118 231.669 92.5168 231.292 92.5168C230.915 92.5168 230.61 92.2118 230.61 91.8346ZM0.925781 100.914V96.5464C0.925781 96.1692 1.23084 95.8642 1.608 95.8642C1.98517 95.8642 2.29022 96.1692 2.29022 96.5464V100.914C2.29022 101.291 1.98517 101.596 1.608 101.596C1.23084 101.596 0.925781 101.291 0.925781 100.914ZM230.61 102.755V98.3869C230.61 98.0097 230.915 97.7038 231.292 97.7038C231.669 97.7038 231.974 98.0097 231.974 98.3869V102.755C231.974 103.131 231.669 103.437 231.292 103.437C230.915 103.437 230.61 103.131 230.61 102.755ZM0.925781 111.834V107.466C0.925781 107.089 1.23084 106.783 1.608 106.783C1.98517 106.783 2.29022 107.089 2.29022 107.466V111.834C2.29022 112.211 1.98517 112.517 1.608 112.517C1.23084 112.517 0.925781 112.211 0.925781 111.834ZM230.61 113.674V109.306C230.61 108.929 230.915 108.624 231.292 108.624C231.669 108.624 231.974 108.929 231.974 109.306V113.674C231.974 114.051 231.669 114.356 231.292 114.356C230.915 114.356 230.61 114.051 230.61 113.674ZM0.925781 122.754V118.386C0.925781 118.009 1.23084 117.704 1.608 117.704C1.98517 117.704 2.29022 118.009 2.29022 118.386V122.754C2.29022 123.131 1.98517 123.436 1.608 123.436C1.23084 123.436 0.925781 123.131 0.925781 122.754ZM230.61 124.594V120.226C230.61 119.849 230.915 119.543 231.292 119.543C231.669 119.543 231.974 119.849 231.974 120.226V124.594C231.974 124.97 231.669 125.276 231.292 125.276C230.915 125.276 230.61 124.97 230.61 124.594ZM0.925781 133.673V129.305C0.925781 128.929 1.23084 128.623 1.608 128.623C1.98517 128.623 2.29022 128.929 2.29022 129.305V133.673C2.29022 134.05 1.98517 134.356 1.608 134.356C1.23084 134.356 0.925781 134.05 0.925781 133.673ZM230.61 135.513V131.146C230.61 130.768 230.915 130.463 231.292 130.463C231.669 130.463 231.974 130.768 231.974 131.146V135.513C231.974 135.891 231.669 136.196 231.292 136.196C230.915 136.196 230.61 135.891 230.61 135.513ZM0.925781 144.593V140.225C0.925781 139.848 1.23084 139.543 1.608 139.543C1.98517 139.543 2.29022 139.848 2.29022 140.225V144.593C2.29022 144.97 1.98517 145.275 1.608 145.275C1.23084 145.275 0.925781 144.97 0.925781 144.593ZM231.167 147.11C230.792 147.076 230.516 146.743 230.551 146.368C230.589 145.938 230.61 145.5 230.61 145.065V142.066C230.61 141.688 230.915 141.383 231.292 141.383C231.669 141.383 231.974 141.688 231.974 142.066V145.065C231.974 145.542 231.953 146.022 231.91 146.493C231.877 146.847 231.58 147.113 231.231 147.113L231.167 147.11ZM4.63548 155.102C3.6408 153.939 2.82639 152.642 2.21535 151.247C2.06374 150.901 2.22182 150.499 2.56663 150.348C2.91143 150.197 3.31448 150.353 3.46516 150.699C4.02259 151.971 4.76582 153.154 5.67268 154.214C5.91765 154.501 5.88437 154.932 5.5978 155.177C5.4693 155.287 5.31123 155.34 5.155 155.34C4.96272 155.34 4.77044 155.26 4.63548 155.102ZM225.962 156.438C225.708 156.159 225.728 155.728 226.006 155.474C227.037 154.533 227.92 153.452 228.632 152.257C228.825 151.933 229.244 151.828 229.567 152.021C229.891 152.214 229.997 152.633 229.804 152.956C229.024 154.265 228.056 155.452 226.926 156.482C226.796 156.601 226.631 156.66 226.467 156.66C226.282 156.66 226.097 156.586 225.962 156.438ZM14.4593 160.402C12.9442 160.212 11.4688 159.8 10.0748 159.175C9.73088 159.021 9.57742 158.617 9.7318 158.274C9.88618 157.93 10.2902 157.775 10.6331 157.93C11.9033 158.499 13.2464 158.874 14.6285 159.046C15.0019 159.094 15.2672 159.435 15.221 159.808C15.1785 160.154 14.8836 160.406 14.5443 160.406L14.4593 160.402ZM215.838 159.837C215.838 159.461 216.144 159.155 216.521 159.155C217.918 159.155 219.3 158.949 220.624 158.545C220.984 158.435 221.367 158.638 221.476 158.998C221.587 159.36 221.383 159.741 221.023 159.851C219.569 160.294 218.053 160.52 216.521 160.52C216.144 160.52 215.838 160.214 215.838 159.837ZM206.042 159.837C206.042 159.461 206.348 159.155 206.725 159.155H211.093C211.47 159.155 211.776 159.461 211.776 159.837C211.776 160.214 211.47 160.52 211.093 160.52H206.725C206.348 160.52 206.042 160.214 206.042 159.837ZM195.123 159.837C195.123 159.461 195.428 159.155 195.805 159.155H200.172C200.55 159.155 200.856 159.461 200.856 159.837C200.856 160.214 200.55 160.52 200.172 160.52H195.805C195.428 160.52 195.123 160.214 195.123 159.837ZM184.203 159.837C184.203 159.461 184.509 159.155 184.885 159.155H189.253C189.63 159.155 189.936 159.461 189.936 159.837C189.936 160.214 189.63 160.52 189.253 160.52H184.885C184.509 160.52 184.203 160.214 184.203 159.837ZM173.284 159.837C173.284 159.461 173.589 159.155 173.966 159.155H178.334C178.711 159.155 179.016 159.461 179.016 159.837C179.016 160.214 178.711 160.52 178.334 160.52H173.966C173.589 160.52 173.284 160.214 173.284 159.837ZM162.364 159.837C162.364 159.461 162.67 159.155 163.046 159.155H167.414C167.791 159.155 168.097 159.461 168.097 159.837C168.097 160.214 167.791 160.52 167.414 160.52H163.046C162.67 160.52 162.364 160.214 162.364 159.837ZM151.444 159.837C151.444 159.461 151.749 159.155 152.127 159.155H156.494C156.872 159.155 157.177 159.461 157.177 159.837C157.177 160.214 156.872 160.52 156.494 160.52H152.127C151.749 160.52 151.444 160.214 151.444 159.837ZM140.524 159.837C140.524 159.461 140.83 159.155 141.206 159.155H145.574C145.951 159.155 146.257 159.461 146.257 159.837C146.257 160.214 145.951 160.52 145.574 160.52H141.206C140.83 160.52 140.524 160.214 140.524 159.837ZM129.605 159.837C129.605 159.461 129.91 159.155 130.287 159.155H134.655C135.032 159.155 135.337 159.461 135.337 159.837C135.337 160.214 135.032 160.52 134.655 160.52H130.287C129.91 160.52 129.605 160.214 129.605 159.837ZM118.685 159.837C118.685 159.461 118.991 159.155 119.367 159.155H123.735C124.112 159.155 124.418 159.461 124.418 159.837C124.418 160.214 124.112 160.52 123.735 160.52H119.367C118.991 160.52 118.685 160.214 118.685 159.837ZM107.766 159.837C107.766 159.461 108.071 159.155 108.448 159.155H112.816C113.193 159.155 113.498 159.461 113.498 159.837C113.498 160.214 113.193 160.52 112.816 160.52H108.448C108.071 160.52 107.766 160.214 107.766 159.837ZM96.8454 159.837C96.8454 159.461 97.1514 159.155 97.5276 159.155H101.896C102.273 159.155 102.579 159.461 102.579 159.837C102.579 160.214 102.273 160.52 101.896 160.52H97.5276C97.1514 160.52 96.8454 160.214 96.8454 159.837ZM85.9262 159.837C85.9262 159.461 86.2321 159.155 86.6084 159.155H90.9763C91.3534 159.155 91.6585 159.461 91.6585 159.837C91.6585 160.214 91.3534 160.52 90.9763 160.52H86.6084C86.2321 160.52 85.9262 160.214 85.9262 159.837ZM75.0069 159.837C75.0069 159.461 75.312 159.155 75.6891 159.155H80.057C80.4333 159.155 80.7392 159.461 80.7392 159.837C80.7392 160.214 80.4333 160.52 80.057 160.52H75.6891C75.312 160.52 75.0069 160.214 75.0069 159.837ZM64.0868 159.837C64.0868 159.461 64.3927 159.155 64.769 159.155H69.1368C69.514 159.155 69.82 159.461 69.82 159.837C69.82 160.214 69.514 160.52 69.1368 160.52H64.769C64.3927 160.52 64.0868 160.214 64.0868 159.837ZM53.1675 159.837C53.1675 159.461 53.4726 159.155 53.8497 159.155H58.2176C58.5948 159.155 58.8998 159.461 58.8998 159.837C58.8998 160.214 58.5948 160.52 58.2176 160.52H53.8497C53.4726 160.52 53.1675 160.214 53.1675 159.837ZM42.2473 159.837C42.2473 159.461 42.5533 159.155 42.9296 159.155H47.2974C47.6746 159.155 47.9806 159.461 47.9806 159.837C47.9806 160.214 47.6746 160.52 47.2974 160.52H42.9296C42.5533 160.52 42.2473 160.214 42.2473 159.837ZM31.3281 159.837C31.3281 159.461 31.6331 159.155 32.0103 159.155H36.3782C36.7554 159.155 37.0604 159.461 37.0604 159.837C37.0604 160.214 36.7554 160.52 36.3782 160.52H32.0103C31.6331 160.52 31.3281 160.214 31.3281 159.837ZM20.4079 159.837C20.4079 159.461 20.7139 159.155 21.0901 159.155H25.458C25.8352 159.155 26.1412 159.461 26.1412 159.837C26.1412 160.214 25.8352 160.52 25.458 160.52H21.0901C20.7139 160.52 20.4079 160.214 20.4079 159.837Z" fill="#E4705F"/>
<path fill-rule="evenodd" clip-rule="evenodd" d="M10.0701 15.4542V145.065C10.0701 148.548 12.8932 151.374 16.3765 151.374H216.521C220.004 151.374 222.83 148.548 222.83 145.065V15.4542C222.83 11.971 220.004 9.14502 216.521 9.14502H16.3765C12.8932 9.14502 10.0701 11.971 10.0701 15.4542Z" fill="#FFFFFE"/>
<path fill-rule="evenodd" clip-rule="evenodd" d="M20.4883 133.207H91.578V30.4976H20.4883V133.207Z" fill="#7BC2E1"/>
<path fill-rule="evenodd" clip-rule="evenodd" d="M24.2266 129.47H87.8396V34.2349H24.2266V129.47Z" fill="#C7DFEB"/>
<path fill-rule="evenodd" clip-rule="evenodd" d="M87.8396 76.6999L45.3755 34.2349H56.2957L87.8396 65.7807V76.6999Z" fill="#DEEEF4"/>
<path fill-rule="evenodd" clip-rule="evenodd" d="M87.8396 114.509L24.2266 50.8947V36.1594L87.8396 99.7724V114.509Z" fill="#DEEEF4"/>
<path fill-rule="evenodd" clip-rule="evenodd" d="M50.3904 129.47H42.5328L24.2266 111.163V103.307L50.3904 129.47Z" fill="#DEEEF4"/>
<path fill-rule="evenodd" clip-rule="evenodd" d="M82.8255 129.47H75.212L24.2266 78.4858V70.8713L82.8255 129.47Z" fill="#DEEEF4"/>
<path fill-rule="evenodd" clip-rule="evenodd" d="M24.2266 81.6112H87.8405V77.1287H24.2266V81.6112Z" fill="#7BC2E1"/>
<path fill-rule="evenodd" clip-rule="evenodd" d="M20.4883 137.287H91.578V133.207H20.4883V137.287Z" fill="#C7DFEB"/>
<path fill-rule="evenodd" clip-rule="evenodd" d="M10.0701 15.4542V21.976H222.83V15.4542C222.83 11.971 220.004 9.14502 216.521 9.14502H16.3765C12.8932 9.14502 10.0701 11.971 10.0701 15.4542Z" fill="#2C3A6A"/>
<path fill-rule="evenodd" clip-rule="evenodd" d="M146.883 145.591H192.743V34.3005H146.883V145.591Z" fill="#C7DFEB"/>
<path fill-rule="evenodd" clip-rule="evenodd" d="M146.883 143.292H192.743V32.0015H146.883V143.292Z" fill="#7BC2E1"/>
<path fill-rule="evenodd" clip-rule="evenodd" d="M150.328 139.848H189.299V35.446H150.328V139.848Z" fill="#C7DFEB"/>
<path fill-rule="evenodd" clip-rule="evenodd" d="M152.05 138.126H187.577V37.167H152.05V138.126Z" fill="#FFFFFE"/>
<path fill-rule="evenodd" clip-rule="evenodd" d="M157.253 131.845H182.537V43.4485H157.253V131.845Z" fill="#C7DFEB"/>
<path fill-rule="evenodd" clip-rule="evenodd" d="M177.164 85.9505C177.164 91.1855 172.921 95.4277 167.686 95.4277C162.452 95.4277 158.208 91.1855 158.208 85.9505C158.208 80.7165 162.452 76.4734 167.686 76.4734C172.921 76.4734 177.164 80.7165 177.164 85.9505Z" fill="#FFFFFE"/>
<path fill-rule="evenodd" clip-rule="evenodd" d="M164.292 87.6468C164.292 87.6468 172.332 75.7227 182.537 74.9055V119.744C182.537 119.744 161.431 96.9113 164.292 87.6468Z" fill="#68B1D6"/>
<path fill-rule="evenodd" clip-rule="evenodd" d="M157.253 84.9134C157.253 84.9134 162.164 83.5351 171.566 94.7317C180.383 105.232 182.537 118.732 182.537 118.732V131.845H157.253V84.9134Z" fill="#7BC2E1"/>
<path fill-rule="evenodd" clip-rule="evenodd" d="M35.2837 16.1072C35.2837 17.5391 36.4457 18.7002 37.8776 18.7002C39.3095 18.7002 40.4706 17.5391 40.4706 16.1072C40.4706 14.6752 39.3095 13.5142 37.8776 13.5142C36.4457 13.5142 35.2837 14.6752 35.2837 16.1072Z" fill="#E4705F"/>
<path fill-rule="evenodd" clip-rule="evenodd" d="M26.8215 16.1072C26.8215 17.5391 27.9826 18.7002 29.4145 18.7002C30.8474 18.7002 32.0085 17.5391 32.0085 16.1072C32.0085 14.6752 30.8474 13.5142 29.4145 13.5142C27.9826 13.5142 26.8215 14.6752 26.8215 16.1072Z" fill="#FFFFFE"/>
<path fill-rule="evenodd" clip-rule="evenodd" d="M18.6321 16.1072C18.6321 17.5391 19.7932 18.7002 21.2251 18.7002C22.657 18.7002 23.819 17.5391 23.819 16.1072C23.819 14.6752 22.657 13.5142 21.2251 13.5142C19.7932 13.5142 18.6321 14.6752 18.6321 16.1072Z" fill="#37488B"/>
<mask id="mask0" mask-type="alpha" maskUnits="userSpaceOnUse" x="10" y="9" width="213" height="143">
<path d="M10.0701 15.4542V145.065C10.0701 148.548 12.8932 151.374 16.3765 151.374H216.521C220.004 151.374 222.83 148.548 222.83 145.065V15.4542C222.83 11.971 220.004 9.14502 216.521 9.14502H16.3765C12.8932 9.14502 10.0701 11.971 10.0701 15.4542Z" fill="white"/>
</mask>
<g mask="url(#mask0)">
<path fill-rule="evenodd" clip-rule="evenodd" d="M31.7116 122.338C31.7116 122.338 5.52654 64.561 31.3391 60.0702C51.0653 56.6378 48.8818 96.4304 31.7116 122.338Z" fill="#375C9A"/>
<path fill-rule="evenodd" clip-rule="evenodd" d="M31.277 159.52H31.2724C31.0348 159.517 30.8444 159.323 30.8462 159.084C31.0533 139.339 32.5028 83.9279 32.5166 83.3714C32.5231 83.1338 32.7182 82.9453 32.9585 82.9516C33.1961 82.9582 33.3838 83.156 33.3773 83.3936C33.3634 83.951 31.9148 139.355 31.7078 159.093C31.705 159.329 31.5127 159.52 31.277 159.52Z" fill="#2C3A6A"/>
<path fill-rule="evenodd" clip-rule="evenodd" d="M25.7407 137.714C25.7407 137.714 -13.6673 100.317 0.539206 85.5853C16.2063 69.3396 28.172 111.121 25.7407 137.714Z" fill="#375C9A"/>
<path fill-rule="evenodd" clip-rule="evenodd" d="M29.9534 156.145C29.7306 156.145 29.542 155.974 29.5244 155.748C28.2802 139.913 12.5049 105.227 12.345 104.88C12.2461 104.664 12.3413 104.407 12.5576 104.309C12.7749 104.211 13.03 104.306 13.1289 104.522C13.2879 104.872 29.126 139.693 30.3823 155.68C30.4017 155.918 30.2242 156.125 29.9876 156.144L29.9534 156.145Z" fill="#2C3A6A"/>
<path fill-rule="evenodd" clip-rule="evenodd" d="M37.9017 136.728C37.9017 136.728 79.079 101.288 65.6047 85.8839C50.7456 68.8968 36.7637 110.047 37.9017 136.728Z" fill="#375C9A"/>
<path fill-rule="evenodd" clip-rule="evenodd" d="M32.8208 154.932L32.7654 154.929C32.5296 154.898 32.3632 154.684 32.3928 154.447C34.4238 138.541 51.9341 104.528 52.1107 104.186C52.2198 103.976 52.4795 103.893 52.6903 104.001C52.902 104.111 52.9843 104.37 52.8752 104.582C52.6995 104.922 35.2585 138.799 33.247 154.556C33.2192 154.773 33.0344 154.932 32.8208 154.932Z" fill="#2C3A6A"/>
<path fill-rule="evenodd" clip-rule="evenodd" d="M54.2787 145.304L52.1812 150.875L51.7948 151.899L50.6605 154.91L50.2759 155.932L45.4107 168.85H18.8318L10.9576 147.944L10.573 146.92L9.96384 145.304C9.54601 144.197 10.3641 143.015 11.5483 143.015H52.6951C53.8775 143.015 54.6947 144.197 54.2787 145.304Z" fill="#00ADCA"/>
<path fill-rule="evenodd" clip-rule="evenodd" d="M53.6701 146.921L53.2846 147.944H10.9573L10.5728 146.921H53.6701Z" fill="#375C9A"/>
<path fill-rule="evenodd" clip-rule="evenodd" d="M52.1809 150.875L51.7945 151.9H12.4475L12.062 150.875H52.1809Z" fill="#375C9A"/>
<path fill-rule="evenodd" clip-rule="evenodd" d="M189.693 103.511C188.863 102.422 189.423 100.113 189.199 98.3202C188.904 95.9565 189.19 92.3198 189.891 90.3102C190.943 87.2947 194.526 78.583 196.965 77.5384C199.402 76.4929 196.894 84.2478 196.411 85.848C195.927 87.4482 196.193 88.7109 196.193 88.7109C196.193 88.7109 203.326 71.3688 205.353 70.7559C207.379 70.1439 204.31 80.4198 203.534 82.9545C203.534 82.9545 209.634 70.1855 211.043 70.2022C213.869 70.2373 207.506 84.612 207.506 84.612C207.506 84.612 213.184 74.131 214.88 75.1136C216.676 76.1545 210.563 87.3659 210.563 87.3659C210.563 87.3659 215.263 81.0734 217.113 81.2536C218.963 81.4348 210.112 95.4065 208.492 97.3903C206.873 99.375 202.95 105.081 200.427 107.282C198.713 108.776 192.318 106.959 189.693 103.511Z" fill="#00ADCA"/>
<path fill-rule="evenodd" clip-rule="evenodd" d="M209.707 91.8834C209.897 91.7049 209.93 91.4082 209.772 91.191C206.09 86.1104 199.906 85.5418 199.644 85.5197C199.355 85.4956 199.101 85.711 199.077 86.0003C199.054 86.2897 199.268 86.543 199.557 86.567C199.616 86.5726 205.528 87.1272 208.921 91.8085C209.092 92.0433 209.42 92.096 209.655 91.9259L209.707 91.8834Z" fill="#0089BF"/>
<path fill-rule="evenodd" clip-rule="evenodd" d="M199.936 100.846C200.087 100.704 200.147 100.478 200.067 100.272C197.804 94.4147 201.285 90.9324 201.321 90.8982C201.529 90.6958 201.533 90.362 201.33 90.155C201.13 89.9488 200.803 89.9424 200.595 90.1374L200.587 90.1448C200.422 90.3047 196.576 94.1531 199.086 100.651C199.19 100.922 199.495 101.057 199.766 100.952L199.936 100.846Z" fill="#0089BF"/>
<path fill-rule="evenodd" clip-rule="evenodd" d="M141.475 106.342L145.5 111.092C146.854 112.697 148.221 114.292 149.595 115.87C152.334 119.035 155.1 122.149 157.89 125.129C159.291 126.611 160.688 128.072 162.101 129.448C163.501 130.838 164.924 132.145 166.299 133.32C166.987 133.904 167.668 134.449 168.316 134.927C168.959 135.406 169.574 135.823 170.075 136.118C170.204 136.199 170.306 136.245 170.422 136.316L170.564 136.388L170.689 136.451L170.79 136.502L170.851 136.527L170.877 136.543L170.778 136.511L170.656 136.477C170.494 136.438 170.324 136.393 170.155 136.369C169.815 136.313 169.48 136.289 169.169 136.302C168.868 136.306 168.596 136.346 168.377 136.391C167.942 136.481 167.707 136.601 167.623 136.649C167.538 136.7 167.583 136.697 167.689 136.635C167.797 136.575 167.97 136.45 168.172 136.292C168.577 135.973 169.088 135.49 169.612 134.924C170.666 133.787 171.793 132.345 172.877 130.805C173.961 129.257 175.042 127.603 176.082 125.888C177.129 124.176 178.151 122.407 179.154 120.608C181.16 117.006 183.091 113.286 184.981 109.522C185.455 108.581 185.924 107.637 186.388 106.69L187.779 103.841L190.495 98.1797L203.774 103.008L203.534 103.857L203.297 104.669L202.815 106.281C202.489 107.351 202.146 108.411 201.802 109.473L201.281 111.062L200.735 112.643C200.368 113.697 199.996 114.749 199.615 115.8C198.087 120.001 196.415 124.169 194.542 128.319C192.652 132.47 190.601 136.598 188.038 140.751C186.742 142.831 185.341 144.921 183.55 147.057C182.652 148.126 181.66 149.211 180.434 150.32C179.819 150.874 179.145 151.429 178.362 151.986C177.579 152.54 176.691 153.097 175.628 153.612C174.567 154.125 173.298 154.603 171.799 154.895C171.047 155.038 170.234 155.129 169.392 155.146C168.54 155.158 167.662 155.097 166.789 154.943C166.355 154.863 165.917 154.771 165.497 154.65L165.181 154.558L164.887 154.467L164.531 154.344C164.297 154.261 164.052 154.175 163.83 154.089L163.182 153.825C162.961 153.735 162.764 153.645 162.566 153.554L161.973 153.278C161.611 153.093 161.225 152.904 160.884 152.715C159.492 151.956 158.293 151.179 157.178 150.394C156.068 149.604 155.046 148.807 154.069 148.005C152.114 146.406 150.357 144.763 148.668 143.113C146.988 141.454 145.389 139.78 143.848 138.079C140.766 134.683 137.897 131.206 135.154 127.657C133.787 125.878 132.454 124.083 131.146 122.268C130.498 121.356 129.854 120.441 129.216 119.518L128.271 118.118L127.799 117.409L127.312 116.661L141.475 106.342Z" fill="#00ADCA"/>
<path fill-rule="evenodd" clip-rule="evenodd" d="M137.424 92.7949C137.424 92.7949 142.1 93.8876 147.473 105.352C152.846 116.817 158.403 123.792 158.403 123.792L145.842 144.859L140.302 137.435C140.302 137.435 118.095 103.465 137.424 92.7949Z" fill="#37488B"/>
<path fill-rule="evenodd" clip-rule="evenodd" d="M102.738 213.363C82.2192 190.07 80.68 156.232 82.0167 139.764C82.1822 137.709 82.221 135.477 82.173 133.141C82.1036 129.703 81.8531 126.027 81.5693 122.328C80.5025 108.424 80.093 95.6299 85.9261 92.0256C91.1592 88.7874 95.0316 87.9619 99.3062 86.7712C101.956 86.0307 104.72 85.8006 107.455 86.1029L123.378 87.862C123.378 87.862 134.908 89.3503 137.624 91.2029C140.343 93.0554 142.013 101.599 147.081 109.293C152.151 116.988 153.482 124.841 149.239 133.65C145.55 141.315 146.143 138.438 146.08 150.789C146.071 152.722 146.106 154.698 146.174 156.688C146.189 157.139 146.207 157.587 146.226 158.037C146.773 171.207 148.697 184.785 149.021 191.368C149.654 204.246 110.513 222.192 102.738 213.363Z" fill="#375C9A"/>
<path fill-rule="evenodd" clip-rule="evenodd" d="M120.36 102.466C120.225 102.461 120.089 102.454 119.952 102.445C116.005 102.197 112.643 100.784 112.501 100.724C112.217 100.603 112.083 100.274 112.204 99.988C112.326 99.7024 112.656 99.5692 112.941 99.6903C113.07 99.7458 125.962 105.09 129.902 96.2136C130.028 95.9298 130.359 95.8013 130.643 95.9279C130.926 96.0537 131.055 96.3855 130.929 96.6693C129.148 100.679 125.499 102.679 120.36 102.466Z" fill="#37488B"/>
<path fill-rule="evenodd" clip-rule="evenodd" d="M112.042 149.309C111.888 149.303 111.736 149.234 111.631 149.104C111.434 148.865 111.469 148.511 111.71 148.314C118.418 142.816 125.848 140.702 130.898 139.896C136.371 139.024 140.21 139.445 140.371 139.462C140.679 139.498 140.9 139.777 140.866 140.085C140.831 140.392 140.553 140.614 140.244 140.579C140.091 140.562 124.879 138.973 112.421 149.183C112.311 149.273 112.176 149.315 112.042 149.309Z" fill="#37488B"/>
<path fill-rule="evenodd" clip-rule="evenodd" d="M112.631 110.81L114.063 121.942C114.063 121.942 130.849 120.636 141.976 120.775L139.784 110.459C139.784 110.459 123.702 109.654 112.631 110.81Z" fill="#37488B"/>
<path fill-rule="evenodd" clip-rule="evenodd" d="M105.67 214.028C105.864 214.195 106.153 214.213 106.369 214.055C106.618 213.87 106.671 213.519 106.487 213.27C92.8797 194.802 88.4573 171.067 87.1437 154.407C85.7192 136.338 87.5421 122.482 87.5606 122.344C87.6013 122.037 87.3859 121.754 87.0799 121.713C86.7721 121.672 86.4892 121.886 86.4485 122.194C86.4291 122.333 84.5914 136.308 86.0252 154.496C86.8682 165.182 88.6588 175.217 91.347 184.322C94.7119 195.718 99.5023 205.681 105.584 213.935L105.67 214.028Z" fill="#37488B"/>
<path fill-rule="evenodd" clip-rule="evenodd" d="M111.255 32.0339C111.255 32.0339 94.9408 35.3914 95.6868 52.5043C96.431 69.6171 97.8518 69.5968 92.9515 74.6404C88.4986 79.2237 89.0292 83.1525 89.0292 83.1525C89.0292 83.1525 99.6239 86.6274 118.172 85.2546C131.222 84.2895 137.234 86.4915 137.234 86.4915C137.234 86.4915 142.287 56.8047 140.273 47.8101C138.261 38.8146 111.255 32.0339 111.255 32.0339Z" fill="#2C3A6A"/>
<path fill-rule="evenodd" clip-rule="evenodd" d="M116.769 75.1931C116.769 75.1931 105.559 75.2319 100.413 64.8987C95.514 55.0602 96.7148 49.2391 98.657 43.0427C100.121 38.3771 106.24 31.2767 116.753 31.3858C127.369 31.4948 136.011 35.2739 138.752 43.4578C143.881 58.7726 134.878 80.3837 116.769 75.1931Z" fill="#2C3A6A"/>
<path fill-rule="evenodd" clip-rule="evenodd" d="M135.625 60.0723C135.625 60.0723 138.612 56.6159 140.244 60.1204C141.877 63.6239 140.52 70.669 136.041 69.4681L135.625 60.0723Z" fill="#0089BF"/>
<path fill-rule="evenodd" clip-rule="evenodd" d="M140.751 71.0307C140.321 71.5752 139.827 72.067 139.273 72.4922C137.164 74.1118 134.165 74.7487 130.233 73.4268C130.233 73.4268 124.62 68.1428 129.752 56.3925C129.752 56.3925 135.772 53.721 139.979 56.9426C140.443 57.2948 140.886 57.7219 141.294 58.2331C141.547 58.5427 141.784 58.8876 142.007 59.2619C143.805 62.2913 143.455 67.6418 140.751 71.0307Z" fill="#375C9A"/>
<path fill-rule="evenodd" clip-rule="evenodd" d="M140.751 71.0305C140.321 71.575 139.827 72.0668 139.274 72.492C141.389 65.3953 140.507 59.3644 139.979 56.9424C140.443 57.2946 140.886 57.7217 141.294 58.2329C141.738 60.9969 142.06 65.6116 140.751 71.0305Z" fill="#37488B"/>
<path fill-rule="evenodd" clip-rule="evenodd" d="M127.984 77.8923L128.118 89.515C128.118 89.515 122.154 96.6386 106.989 87.5136C108.499 82.6216 110.771 76.2847 109.651 72.5842C109.651 72.5842 110.76 72.991 112.557 74.0827C112.908 74.2972 113.33 74.434 113.756 74.6189C117.523 76.2459 123.193 78.2139 127.984 77.8923Z" fill="#00ADCA"/>
<path fill-rule="evenodd" clip-rule="evenodd" d="M128.981 88.8697C128.891 88.573 128.578 88.4057 128.281 88.4953C127.985 88.585 127.817 88.8984 127.908 89.1951C127.923 89.2497 129.586 94.7592 130.613 100.815C131.949 108.686 131.641 113.885 129.72 115.851C128.839 116.754 127.602 116.969 125.94 116.508C117.43 114.149 109.578 91.2667 107.827 85.8422C107.747 85.5927 107.505 85.4337 107.244 85.4595L107.233 85.4605C106.879 85.4947 106.646 85.8459 106.754 86.1852C108.296 91.0125 114.41 108.98 121.941 115.463C123.142 116.498 124.378 117.24 125.64 117.59C127.703 118.162 129.346 117.841 130.524 116.635C135.713 111.32 129.258 89.7831 128.981 88.8697Z" fill="#FFFFFE"/>
<path fill-rule="evenodd" clip-rule="evenodd" d="M127.984 77.8925L128.124 82.3963C124.019 81.4377 116.643 79.1174 112.557 74.083C112.929 74.2549 113.33 74.4343 113.757 74.6192C117.523 76.2462 123.193 78.2142 127.984 77.8925Z" fill="#2C3A6A"/>
<path fill-rule="evenodd" clip-rule="evenodd" d="M138.578 60.0918C138.565 61.0874 138.548 62.0266 138.525 62.9103C138.349 69.5569 137.853 73.1954 136.239 74.8335C128.073 83.1061 110.243 72.9449 109.669 72.6167L109.655 72.6066C109.496 71.8569 109.356 71.1127 109.23 70.3778C108.152 64.1491 108.139 58.3733 108.828 52.8942C108.586 47.1046 112.086 41.7513 117.548 39.8239C123.212 37.829 128.242 40.361 131.272 41.3279C135.844 42.7894 138.668 48.7491 138.608 57.1965C138.601 58.2097 138.59 59.1757 138.578 60.0918Z" fill="#00ADCA"/>
<path fill-rule="evenodd" clip-rule="evenodd" d="M130.772 67.6479C131.988 67.6248 133.27 67.256 134.531 66.3186C134.715 66.1809 134.754 65.9202 134.616 65.7362C134.479 65.5523 134.219 65.5144 134.035 65.6503C129.524 69.005 124.597 64.0409 124.547 63.99C124.388 63.8255 124.124 63.8218 123.959 63.9826C123.795 64.1425 123.791 64.406 123.952 64.5706C123.993 64.6122 127.079 67.72 130.772 67.6479Z" fill="#2C3A6A"/>
<path fill-rule="evenodd" clip-rule="evenodd" d="M125.754 49.3804C125.754 49.3804 127.429 49.5634 126.824 51.0942C126.219 52.6251 122.873 50.8964 120.437 53.703C120.437 53.703 119.451 50.0053 125.754 49.3804Z" fill="#2C3A6A"/>
<path fill-rule="evenodd" clip-rule="evenodd" d="M125.091 61.3619C125.083 62.144 123.465 62.7615 121.477 62.7412C119.49 62.7208 117.885 62.07 117.893 61.287C117.902 60.505 119.519 59.8875 121.507 59.9087C123.494 59.9291 125.099 60.5799 125.091 61.3619Z" fill="#0089BF"/>
<path fill-rule="evenodd" clip-rule="evenodd" d="M138.525 62.9104C136.7 62.8244 135.282 62.2032 135.289 61.4683C135.297 60.7269 136.743 60.1352 138.578 60.0918C138.566 61.0874 138.548 62.0266 138.525 62.9104Z" fill="#0090C1"/>
<path fill-rule="evenodd" clip-rule="evenodd" d="M125.654 56.8413C125.642 57.9155 125.146 58.7817 124.544 58.7752C123.944 58.7687 123.465 57.8933 123.477 56.8191C123.488 55.744 123.983 54.8788 124.585 54.8843C125.186 54.8908 125.664 55.7672 125.654 56.8413Z" fill="#2C3A6A"/>
<path fill-rule="evenodd" clip-rule="evenodd" d="M136.283 56.9515C136.272 58.0256 135.775 58.8909 135.175 58.8854C134.574 58.8789 134.095 58.0034 134.106 56.9283C134.117 55.8542 134.614 54.988 135.214 54.9944C135.816 55.0009 136.294 55.8764 136.283 56.9515Z" fill="#2C3A6A"/>
<path fill-rule="evenodd" clip-rule="evenodd" d="M131.591 61.2213C132.105 61.2259 132.455 61.1436 132.484 61.1362C132.605 61.1067 132.707 61.0281 132.766 60.9199C132.826 60.8118 132.837 60.6823 132.798 60.5659L131.211 55.8633C131.132 55.6322 130.882 55.5074 130.65 55.586C130.418 55.6637 130.295 55.9142 130.373 56.1453L131.786 60.3329C131.342 60.3505 130.655 60.2969 129.979 59.9243C129.766 59.8069 129.497 59.8846 129.379 60.0981C129.261 60.3126 129.339 60.5807 129.552 60.699C130.295 61.1085 131.038 61.2148 131.591 61.2213Z" fill="#2C3A6A"/>
<path fill-rule="evenodd" clip-rule="evenodd" d="M113.21 68.2932C113.158 68.4125 111.711 71.6747 109.67 72.6158L109.666 72.6176L109.655 72.6066C109.497 71.8569 109.356 71.1127 109.23 70.3778C109.306 70.3658 111.361 70.0302 113.21 68.2932Z" fill="#2C3A6A"/>
<path fill-rule="evenodd" clip-rule="evenodd" d="M111.319 60.8118C111.319 60.8118 107.082 54.9963 103.888 59.4982C101.256 63.2079 106.059 72.9966 111.227 69.7139L111.319 60.8118Z" fill="#00ADCA"/>
<path fill-rule="evenodd" clip-rule="evenodd" d="M110.658 67.9695L110.706 67.9677C110.949 67.9436 111.127 67.7273 111.103 67.4842C110.617 62.5709 106.505 60.8293 106.33 60.7572C106.104 60.6638 105.846 60.772 105.753 60.9985C105.661 61.2231 105.768 61.4819 105.994 61.5744C106.148 61.6391 109.79 63.1995 110.223 67.5711C110.246 67.7976 110.435 67.9677 110.658 67.9695Z" fill="#2C3A6A"/>
<path fill-rule="evenodd" clip-rule="evenodd" d="M106.56 65.2475C106.659 65.2484 106.757 65.2179 106.84 65.1523C107.228 64.8444 108.402 64.091 109.161 64.2935C109.397 64.3563 109.639 64.2168 109.702 63.981C109.766 63.7444 109.625 63.5022 109.389 63.4393C108.064 63.0862 106.468 64.3184 106.289 64.4599C106.099 64.6115 106.067 64.8907 106.219 65.0811C106.305 65.1892 106.433 65.2466 106.56 65.2475Z" fill="#2C3A6A"/>
<path fill-rule="evenodd" clip-rule="evenodd" d="M108.007 47.1367C108.007 47.1367 113.832 52.5612 116.321 51.2605C118.81 49.9598 114.86 45.0567 114.86 45.0567C114.86 45.0567 123.525 49.8656 126.887 48.38C130.247 46.8954 124.288 42.7669 124.288 42.7669C124.288 42.7669 130.878 48.7526 134.668 48.441C138.458 48.1295 134.721 43.316 134.721 43.316C134.721 43.316 138.114 50.0486 140.405 49.4958C142.695 48.9439 139.727 39.3013 132.188 35.9521C124.648 32.602 105.366 32.9921 108.007 47.1367Z" fill="#2C3A6A"/>
<path fill-rule="evenodd" clip-rule="evenodd" d="M113.122 49.2268C113.122 49.2268 114.931 61.5142 111.839 61.5383C108.747 61.5623 105.685 56.7535 108.007 47.1367L113.122 49.2268Z" fill="#2C3A6A"/>
<path fill-rule="evenodd" clip-rule="evenodd" d="M133.353 49.4592C133.353 49.4592 131.674 49.6081 132.247 51.15C132.82 52.6928 136.202 51.0344 138.579 53.8909C138.579 53.8909 139.641 50.2145 133.353 49.4592Z" fill="#2C3A6A"/>
<path fill-rule="evenodd" clip-rule="evenodd" d="M144.364 57.1827L138.61 57.3241L138.601 58.1228H138.613L144.384 57.9814C144.605 57.9758 144.779 57.7928 144.773 57.5719C144.768 57.3519 144.594 57.1707 144.364 57.1827Z" fill="#FFFFFE"/>
<path fill-rule="evenodd" clip-rule="evenodd" d="M122.783 62.6727L122.683 62.6699C120.951 62.6237 119.403 61.8342 118.345 60.6094C117.432 59.5527 116.885 58.1735 116.9 56.6686C116.904 56.358 116.931 56.0529 116.981 55.7543L116.991 55.697C117.395 53.3952 119.124 51.55 121.354 50.9741C121.848 50.8447 122.369 50.7782 122.905 50.7846C124.058 50.7966 125.132 51.1368 126.04 51.7211C127.709 52.7878 128.81 54.6672 128.789 56.7924C128.755 60.0676 126.062 62.7087 122.783 62.6727ZM129.464 55.4437C129.413 55.1728 129.344 54.9103 129.259 54.6533C128.808 53.2648 127.919 52.0696 126.751 51.2394C125.683 50.4749 124.388 50.0155 122.983 49.9896L122.914 49.9859C119.715 49.9545 117.004 52.1657 116.288 55.1516C116.224 55.4104 116.177 55.672 116.148 55.941C116.119 56.1758 116.105 56.4171 116.101 56.6584C116.083 58.4499 116.767 60.0871 117.895 61.3064C118.28 61.7214 118.717 62.0884 119.192 62.3926C120.227 63.0646 121.455 63.4584 122.774 63.4723C124.996 63.4945 126.978 62.436 128.225 60.7896C129.066 59.6775 129.571 58.2965 129.587 56.7989V56.7804C129.589 56.3237 129.549 55.8763 129.464 55.4437Z" fill="#FFFFFE"/>
<path fill-rule="evenodd" clip-rule="evenodd" d="M144.713 56.9545C144.713 57.0858 144.708 57.2152 144.695 57.3428C144.684 57.5277 144.661 57.7098 144.628 57.89C144.407 59.2083 143.747 60.3795 142.807 61.2512C142.462 61.5729 142.079 61.8503 141.665 62.0851C141.406 62.2293 141.136 62.3559 140.855 62.4604L140.611 62.5445C140.011 62.7414 139.37 62.844 138.706 62.8385L138.525 62.8338L138.414 62.8301C137.429 62.7691 136.508 62.4715 135.711 61.9871C135.592 61.9177 135.477 61.8429 135.365 61.7634C133.813 60.6781 132.803 58.869 132.825 56.8334C132.83 56.3758 132.887 55.9294 132.989 55.5023C133.325 54.1129 134.148 52.9148 135.264 52.0976C135.955 51.5911 136.758 51.2296 137.63 51.0577C137.77 51.0318 137.911 51.0114 138.058 50.992C138.31 50.9615 138.567 50.9467 138.83 50.9495C139.02 50.9532 139.207 50.9615 139.391 50.9819C139.65 51.0087 139.899 51.053 140.147 51.1131C140.343 51.1566 140.538 51.2148 140.726 51.2814C143.067 52.0995 144.741 54.3412 144.713 56.9545ZM140.699 50.4328C140.501 50.3727 140.302 50.3237 140.097 50.2811C139.856 50.2331 139.61 50.1989 139.36 50.1785C139.187 50.1619 139.015 50.1536 138.84 50.1508C138.516 50.1471 138.196 50.1684 137.889 50.209C137.51 50.258 137.142 50.3394 136.786 50.4494C135.797 50.7545 134.906 51.2804 134.167 51.9701C133.354 52.7281 132.728 53.6876 132.373 54.7655C132.277 55.0391 132.204 55.3239 132.148 55.6123L132.141 55.6576C132.069 56.0366 132.03 56.4267 132.027 56.8242C131.998 59.4819 133.522 61.8013 135.75 62.9226C136.473 63.2868 137.272 63.5244 138.118 63.6057C138.245 63.6177 138.375 63.6279 138.504 63.6288L138.699 63.6372C139.364 63.6427 140.008 63.554 140.617 63.3774C140.715 63.3524 140.813 63.3219 140.909 63.2896C141.173 63.1999 141.433 63.0955 141.682 62.9744C142.152 62.7497 142.591 62.4724 142.991 62.1498C144.508 60.9249 145.492 59.0604 145.512 56.9647C145.545 53.8929 143.504 51.273 140.699 50.4328Z" fill="#FFFFFE"/>
<path fill-rule="evenodd" clip-rule="evenodd" d="M108.153 57.9823L108.011 57.9546C107.805 57.8732 107.705 57.6412 107.786 57.4369C109.611 52.8102 116.657 55.2617 116.727 55.2876C116.935 55.3616 117.043 55.5899 116.969 55.797C116.895 56.004 116.667 56.1131 116.459 56.0401C116.395 56.017 110.07 53.8206 108.528 57.7299C108.466 57.888 108.314 57.9841 108.153 57.9823Z" fill="#FFFFFE"/>
<path fill-rule="evenodd" clip-rule="evenodd" d="M132.483 55.7831C132.38 55.7822 132.278 55.7415 132.201 55.662C131.104 54.5277 129.418 55.4632 129.402 55.4725C129.21 55.5806 128.966 55.5141 128.858 55.3218C128.749 55.1305 128.816 54.8864 129.009 54.7782C129.78 54.3419 131.557 53.8483 132.774 55.1064C132.927 55.2654 132.923 55.5178 132.765 55.6712C132.686 55.747 132.584 55.784 132.483 55.7831Z" fill="#FFFFFE"/>
<path fill-rule="evenodd" clip-rule="evenodd" d="M140.406 49.4952C140.494 49.474 140.573 49.4388 140.645 49.3917C140.919 53.755 140.482 57.1753 140.445 57.4684L139.154 57.2936C139.164 57.2243 139.608 53.7291 139.308 49.2983C139.688 49.4971 140.06 49.5794 140.406 49.4952Z" fill="#FFFFFE"/>
<path fill-rule="evenodd" clip-rule="evenodd" d="M65.0276 123.436C65.0276 123.436 57.8236 137.985 56.033 151.374H76.8583C76.8583 151.374 81.3232 137.868 86.8873 130.207L65.0276 123.436Z" fill="#00ADCA"/>
<path fill-rule="evenodd" clip-rule="evenodd" d="M84.2721 93.4763C84.2721 93.4763 69.3205 103.819 62.0999 125.475C62.0999 125.475 70.1118 135.247 88.2572 134.356C88.2572 134.356 96.5493 121.19 97.6974 109.313C98.8455 97.4347 84.2721 93.4763 84.2721 93.4763Z" fill="#375C9A"/>
<path fill-rule="evenodd" clip-rule="evenodd" d="M88.2576 134.818C88.1263 134.818 87.996 134.763 87.9045 134.654C87.739 134.459 87.764 134.168 87.959 134.003C96.1512 127.068 97.2263 109.464 97.2365 109.287C97.2504 109.031 97.4722 108.84 97.7237 108.85C97.9788 108.865 98.1739 109.083 98.1591 109.337C98.1184 110.077 97.0488 127.52 88.5562 134.709C88.4693 134.782 88.363 134.818 88.2576 134.818Z" fill="#37488B"/>
</g>
<path fill-rule="evenodd" clip-rule="evenodd" d="M69.3562 151.757C69.3562 151.757 70.3721 145.546 73.7287 145.859C77.0844 146.172 81.2886 152.929 82.6041 155.4C83.9186 157.872 77.6409 155.521 75.9908 153.101C74.753 151.288 73.3451 151.757 73.3451 151.757H69.3562Z" fill="#00ADCA"/>
<path fill-rule="evenodd" clip-rule="evenodd" d="M80.3398 150.195C80.3398 150.195 81.4538 145.38 84.8094 145.692C88.166 146.006 92.3702 152.762 93.6857 155.234C95.0002 157.706 88.8861 155.234 87.0715 152.935C85.2578 150.637 83.6798 150.694 83.6798 150.694L80.3398 150.195Z" fill="#00ADCA"/>
<path fill-rule="evenodd" clip-rule="evenodd" d="M85.7468 149.428C85.7468 149.428 86.7304 145.174 89.695 145.451C92.6596 145.728 96.374 151.696 97.5359 153.88C98.697 156.063 93.2956 153.88 91.6936 151.849C90.0907 149.819 88.6976 149.869 88.6976 149.869L85.7468 149.428Z" fill="#00ADCA"/>
<path fill-rule="evenodd" clip-rule="evenodd" d="M74.7288 150.521C74.7288 150.521 75.8418 145.706 79.1983 146.02C82.554 146.332 86.7592 153.089 88.0737 155.56C89.3882 158.033 83.2741 155.561 81.4604 153.262C79.6467 150.963 78.0678 151.022 78.0678 151.022L74.7288 150.521Z" fill="#00ADCA"/>
<path fill-rule="evenodd" clip-rule="evenodd" d="M253.52 9.90494V30.5352C253.52 33.2613 251.307 35.4744 248.58 35.4744H211.123L199.813 39.5317C198.652 39.9495 197.541 38.8069 197.987 37.6588L202.264 26.6111V9.90494C202.264 7.1779 204.476 4.96484 207.206 4.96484H248.58C251.307 4.96484 253.52 7.1779 253.52 9.90494Z" fill="#1E8ABF"/>
<path fill-rule="evenodd" clip-rule="evenodd" d="M220.978 20.8068C220.978 22.7804 219.379 24.3806 217.405 24.3806C215.432 24.3806 213.832 22.7804 213.832 20.8068C213.832 18.8331 215.432 17.2339 217.405 17.2339C219.379 17.2339 220.978 18.8331 220.978 20.8068Z" fill="#375C9A"/>
<path fill-rule="evenodd" clip-rule="evenodd" d="M232.29 20.8068C232.29 22.7804 230.69 24.3806 228.716 24.3806C226.743 24.3806 225.144 22.7804 225.144 20.8068C225.144 18.8331 226.743 17.2339 228.716 17.2339C230.69 17.2339 232.29 18.8331 232.29 20.8068Z" fill="#375C9A"/>
<path fill-rule="evenodd" clip-rule="evenodd" d="M243.601 20.8068C243.601 22.7804 242.001 24.3806 240.028 24.3806C238.054 24.3806 236.454 22.7804 236.454 20.8068C236.454 18.8331 238.054 17.2339 240.028 17.2339C242.001 17.2339 243.601 18.8331 243.601 20.8068Z" fill="#375C9A"/>
<path fill-rule="evenodd" clip-rule="evenodd" d="M239.522 372.609C239.522 375.839 289.744 378.458 351.698 378.458C413.65 378.458 463.873 375.839 463.873 372.609C463.873 369.378 413.65 366.759 351.698 366.759C289.744 366.759 239.522 369.378 239.522 372.609Z" fill="black" fill-opacity="0.08"/>
<path fill-rule="evenodd" clip-rule="evenodd" d="M312.379 338.309V372.609H298.146L287 332.65L312.379 338.309Z" fill="#DF7A54"/>
<path fill-rule="evenodd" clip-rule="evenodd" d="M312.379 347.062C305.925 346.345 296.721 344.713 290.012 343.451L287 332.65L312.379 338.309V347.062Z" fill="#CB5C3F"/>
<path fill-rule="evenodd" clip-rule="evenodd" d="M392.551 338.309V372.609H406.784L417.93 332.65L392.551 338.309Z" fill="#DF7A54"/>
<path fill-rule="evenodd" clip-rule="evenodd" d="M392.551 347.062V338.309L417.93 332.65L414.918 343.451C408.209 344.713 399.005 346.345 392.551 347.062Z" fill="#CB5C3F"/>
<path fill-rule="evenodd" clip-rule="evenodd" d="M458.477 135.99C457.099 150.464 444.946 203.166 438.828 229.142C438.218 231.733 437.669 234.057 437.193 236.052C436.04 240.919 435.341 243.818 435.341 243.818L304.376 241.069C304.376 241.069 304.009 239.392 303.376 236.426C298.693 214.502 279.371 122.051 284.475 113.044C284.834 112.41 285.364 111.784 286.051 111.171C286.539 110.733 287.1 110.305 287.741 109.88C288.377 109.457 289.088 109.038 289.871 108.627C299.349 103.621 319.113 99.4546 341.557 96.9947C368.025 94.0865 398.216 93.5586 419.643 96.8311C420.255 96.9244 420.861 97.0224 421.457 97.1222C423.017 97.3792 424.516 97.6473 425.953 97.9182C454.043 103.238 459.481 110.884 459.656 121.713V121.721C459.721 125.973 458.98 130.709 458.477 135.99Z" fill="#EB9462"/>
<path fill-rule="evenodd" clip-rule="evenodd" d="M305.2 213.03C304.931 213.03 304.691 212.837 304.642 212.562C304.6 212.334 300.448 189.521 297.099 166.326C295.131 152.696 293.821 141.603 293.205 133.352C292.147 119.194 293.347 116.37 294.342 115.477C300.094 110.316 329.855 106.361 347.085 104.461C355.338 103.552 363.744 103.265 372.07 103.609C391.989 104.431 426.273 106.61 432.081 111.968C433.063 112.875 434.222 115.715 432.968 129.859C432.238 138.099 430.772 149.173 428.614 162.774C424.941 185.919 420.472 208.673 420.427 208.9C420.365 209.209 420.066 209.41 419.758 209.35C419.45 209.288 419.25 208.989 419.311 208.681C419.355 208.454 423.823 185.717 427.491 162.593C433.912 122.133 432.64 114.033 431.309 112.805C427.262 109.071 405.654 106.133 372.023 104.745C363.755 104.404 355.406 104.689 347.21 105.593C330.115 107.477 300.616 111.376 295.102 116.324C293.755 117.533 292.369 125.615 298.224 166.161C301.57 189.334 305.72 212.131 305.761 212.358C305.817 212.667 305.613 212.964 305.304 213.019L305.2 213.03Z" fill="#DF7A54"/>
<path fill-rule="evenodd" clip-rule="evenodd" d="M459.656 121.713V121.722C459.6 125.686 458.939 130.064 458.478 134.898C457.099 149.37 444.947 202.075 438.829 228.05H417.427C417.427 228.05 441.027 141.978 442.415 120.809C443.321 106.989 433.139 100.652 425.953 97.9189C454.043 103.239 459.482 110.884 459.656 121.713Z" fill="#DF7A54"/>
<path fill-rule="evenodd" clip-rule="evenodd" d="M302.385 236.685C302.385 236.685 284.38 236.53 282.731 243.817C281.445 249.501 281.039 298.611 281.86 320.733C282.075 326.533 277.606 331.435 271.81 331.762C270.529 331.834 269.179 331.898 267.79 331.948C261.12 332.186 253.553 332.091 248.367 330.921C237.071 328.369 236.707 312.34 232.699 285.741C228.692 259.145 225.048 211.781 249.822 202.67C250.674 202.357 251.53 202.073 252.38 201.815C276.253 194.599 299.009 208.865 299.009 208.865C304.511 224.088 302.385 236.685 302.385 236.685Z" fill="#DF7A54"/>
<path fill-rule="evenodd" clip-rule="evenodd" d="M267.79 331.948C261.12 332.186 253.553 332.091 248.367 330.921C237.071 328.369 236.707 312.34 232.699 285.741C228.692 259.145 225.048 211.781 249.822 202.671C250.674 202.357 251.53 202.073 252.38 201.815C256.602 202.824 260.481 205.624 262.574 211.781C268.251 228.473 259.24 286.477 267.79 331.948Z" fill="#EB9462"/>
<path fill-rule="evenodd" clip-rule="evenodd" d="M254.598 327.958C249.451 327.958 245.45 325.835 243.004 321.793C239.178 315.473 233.658 261.24 233.425 258.934C233.396 258.652 233.602 258.398 233.885 258.37C234.166 258.342 234.419 258.547 234.448 258.83C234.505 259.393 240.178 315.136 243.885 321.261C249.506 330.549 261.913 325.596 262.037 325.545C262.3 325.438 262.6 325.564 262.709 325.826C262.817 326.089 262.691 326.389 262.428 326.497C262.293 326.553 259.076 327.854 255.069 327.954C254.911 327.956 254.753 327.958 254.598 327.958Z" fill="#DF7A54"/>
<path fill-rule="evenodd" clip-rule="evenodd" d="M256.442 221.17C256.442 221.17 256.038 212.068 249.167 212.788C242.298 213.51 241.968 228.528 248.11 230.468C257.095 233.309 256.442 221.17 256.442 221.17Z" fill="#DF7A54"/>
<path fill-rule="evenodd" clip-rule="evenodd" d="M240.625 218.451L240.513 218.44C240.236 218.378 240.061 218.103 240.122 217.827C240.197 217.487 242.037 209.509 248.686 207.92C251.38 207.276 253.772 207.759 255.796 209.357C258.725 211.668 260.089 215.843 260.089 217.938C260.089 218.221 259.858 218.451 259.575 218.451C259.29 218.451 259.06 218.221 259.06 217.938C259.06 216.3 257.915 212.339 255.16 210.165C253.395 208.773 251.296 208.354 248.924 208.921C242.896 210.361 241.144 217.973 241.127 218.049C241.073 218.29 240.861 218.451 240.625 218.451Z" fill="#DF7A54"/>
<path fill-rule="evenodd" clip-rule="evenodd" d="M444.518 235.184C443.235 240.594 442.457 243.817 442.457 243.817L296.86 240.76C296.86 240.76 296.453 238.9 295.752 235.598C321.555 231.212 410.1 232.695 444.518 235.184Z" fill="#DF7A54"/>
<path fill-rule="evenodd" clip-rule="evenodd" d="M443.358 262.686C443.321 265.43 443.261 268.337 443.171 271.352C442.36 298.488 439.039 334.263 427.27 337.397C408.109 342.507 289.214 345.104 283.003 333.745C281.148 330.355 279.993 324.646 279.242 317.663C279.094 316.294 278.963 314.877 278.846 313.418C277.825 300.777 277.814 285.049 277.392 271.352C277.276 267.671 277.134 264.133 276.933 260.846C275.458 236.699 295.11 236.357 295.11 236.357C322.897 235.706 363.715 237.008 395.463 238.348C412.017 239.048 426.105 239.755 434.595 240.203C440.056 240.49 443.2 240.672 443.2 240.672C443.2 240.672 443.527 249.911 443.358 262.686Z" fill="#EB9462"/>
<path fill-rule="evenodd" clip-rule="evenodd" d="M350.244 318.017C347.847 318.017 345.376 317.993 342.825 317.94C304.452 317.16 282.366 308.522 282.148 308.434C281.823 308.306 281.665 307.938 281.794 307.614C281.923 307.289 282.291 307.13 282.616 307.26C282.832 307.346 304.73 315.9 342.851 316.677C381.021 317.451 401.984 312.021 402.192 311.968C402.53 311.877 402.875 312.079 402.965 312.416C403.056 312.753 402.854 313.1 402.517 313.19C402.322 313.241 383.887 318.017 350.244 318.017Z" fill="#DF7A54"/>
<path fill-rule="evenodd" clip-rule="evenodd" d="M443.357 262.686C443.32 265.43 443.261 268.337 443.171 271.352C442.36 298.489 439.039 334.263 427.27 337.397C408.108 342.507 289.214 345.104 283.003 333.745C281.148 330.355 279.993 324.646 279.242 317.663C279.094 316.294 278.963 314.877 278.846 313.418C284.484 317.178 301.412 322.11 313.043 323.304C361.534 328.276 415.104 323.252 415.104 323.252C408.736 297 397.175 246.602 401.642 233.335C418.198 234.035 426.105 239.755 434.595 240.203L443.357 262.686Z" fill="#DF7A54"/>
<path fill-rule="evenodd" clip-rule="evenodd" d="M302.023 233.526C303.585 234.935 305.353 236.268 307.301 237.52L307.485 237.636C308.848 238.508 310.298 239.334 311.82 240.114C312.365 240.393 312.92 240.665 313.477 240.93C317.916 243.035 322.927 244.766 328.296 246.015C328.784 246.133 329.276 246.242 329.771 246.343C331.2 246.651 332.65 246.925 334.119 247.157C334.612 247.242 335.107 247.313 335.602 247.384C341.284 248.196 347.232 248.475 353.211 248.111C353.915 248.07 354.62 248.019 355.324 247.955C357.201 247.8 359.076 247.572 360.951 247.278L361.085 247.258C361.65 247.168 362.214 247.073 362.778 246.971C365.81 246.423 368.821 245.693 371.782 244.771C374.366 243.969 376.908 243.016 379.393 241.899C379.817 241.714 380.235 241.517 380.654 241.323C381.178 241.073 381.697 240.82 382.212 240.557L382.359 240.486C385.3 231.987 388.164 201.783 388.913 192.757C389.067 190.958 389.178 189.162 389.27 187.365C389.464 183.299 389.504 179.226 389.436 175.101C389.427 174.56 389.418 174.024 389.399 173.479C389.394 173.18 389.388 172.876 389.379 172.572C389.272 168.739 389.077 164.86 388.825 160.903C388.795 160.409 388.762 159.915 388.732 159.418C388.567 157.017 388.388 154.588 388.196 152.129C387.788 146.907 387.325 141.53 386.875 135.928C386.145 126.915 384.103 119.844 380.817 115.09C379.989 113.893 379.083 112.845 378.101 111.946C375.919 109.957 373.359 108.723 370.429 108.31C368.628 108.058 366.984 107.712 365.49 107.312C365.21 107.241 364.943 107.165 364.675 107.086C363.831 106.843 363.036 106.578 362.292 106.308C361.433 105.994 360.642 105.667 359.922 105.341C359.807 105.292 359.692 105.24 359.582 105.191C359.39 105.097 359.198 105.012 359.015 104.918C355.93 103.414 354.179 102.043 354.179 102.043L333.054 102.416C332.894 102.66 332.728 102.896 332.564 103.123L332.527 103.17C331.112 105.066 329.429 106.43 327.619 107.467C327.276 107.668 326.925 107.851 326.577 108.027C326.309 108.166 326.033 108.294 325.757 108.421C325.472 108.549 325.181 108.673 324.893 108.791C324.205 109.074 323.513 109.327 322.816 109.568L322.791 109.572C317.702 111.296 312.512 112.09 309.725 115.919C309.301 116.506 308.931 117.158 308.628 117.895C308.325 118.634 308.085 119.454 307.921 120.374C307.824 120.886 307.778 121.449 307.769 122.061C307.667 128.26 311.436 139.808 311.405 161.358C311.403 162.702 311.385 164.079 311.351 165.494C311.342 165.917 311.333 166.344 311.319 166.77C311.297 167.645 311.262 168.532 311.223 169.437V169.441C311.179 170.346 311.137 171.267 311.082 172.202C310.985 173.943 310.861 175.745 310.708 177.589C310.581 179.209 310.428 180.872 310.248 182.577C310.067 184.321 309.867 186.111 309.637 187.947C308.723 195.255 306.645 209.762 304.399 221.957C304.048 223.878 303.688 225.737 303.331 227.504C303.292 227.692 303.258 227.874 303.218 228.056C302.818 230.023 302.42 231.863 302.023 233.526Z" fill="#157663"/>
<path fill-rule="evenodd" clip-rule="evenodd" d="M337.219 142.147L318.286 141.025C318.286 141.025 313.228 165.884 325.047 166.903C338.746 168.085 337.219 142.147 337.219 142.147Z" fill="#1E3A34"/>
<path fill-rule="evenodd" clip-rule="evenodd" d="M341.563 121.945C346.035 121.865 350.11 119.014 353.451 113.584C356.304 108.95 357.613 104.128 357.668 103.924C357.781 103.503 357.531 103.069 357.109 102.956C356.687 102.843 356.253 103.093 356.141 103.515C356.091 103.703 350.986 122.233 339.647 120.21C336.685 119.681 334.48 118.32 333.091 116.166C330.055 111.453 331.793 104.443 331.811 104.373C331.919 103.95 331.663 103.519 331.24 103.412C330.818 103.303 330.386 103.559 330.278 103.982C330.199 104.297 328.357 111.737 331.763 117.021C333.397 119.561 335.958 121.156 339.37 121.766C340.109 121.899 340.841 121.958 341.563 121.945Z" fill="#FFFFFE"/>
<path fill-rule="evenodd" clip-rule="evenodd" d="M340.124 135.243C343.701 135.179 347.518 134.141 351.473 132.156C358.276 128.741 363.22 123.618 363.27 123.566C363.451 123.376 363.456 123.061 363.281 122.863C363.105 122.665 362.815 122.658 362.633 122.849C362.585 122.899 357.735 127.92 351.066 131.263C342.203 135.705 334.5 135.233 328.171 129.861C327.972 129.692 327.683 129.73 327.529 129.946C327.374 130.163 327.41 130.475 327.608 130.645C331.257 133.741 335.414 135.289 339.966 135.245L340.124 135.243Z" fill="#1E3A34"/>
<path fill-rule="evenodd" clip-rule="evenodd" d="M340.223 126.457C345.2 126.369 350.913 121.984 351.228 121.74C351.433 121.58 351.481 121.271 351.333 121.046C351.185 120.823 350.9 120.772 350.694 120.931C350.599 121.005 341.05 128.329 336.472 124.194C336.278 124.018 335.989 124.046 335.827 124.258C335.666 124.468 335.693 124.783 335.887 124.958C337.125 126.076 338.637 126.485 340.223 126.457Z" fill="#1E3A34"/>
<path fill-rule="evenodd" clip-rule="evenodd" d="M340.087 198.79C341.954 198.757 343.858 198.554 345.792 198.184C350.56 197.267 355.524 195.326 360.547 192.412C369.085 187.462 374.928 181.32 374.985 181.259C375.166 181.067 375.17 180.753 374.992 180.556C374.816 180.359 374.525 180.355 374.345 180.547C374.288 180.607 368.522 186.663 360.093 191.547C352.353 196.031 340.713 200.419 329.21 195.849C328.973 195.755 328.71 195.887 328.624 196.146C328.537 196.403 328.66 196.689 328.898 196.783C332.436 198.189 336.182 198.858 340.087 198.79Z" fill="#1E3A34"/>
<path fill-rule="evenodd" clip-rule="evenodd" d="M332.505 178.115C334.331 178.506 336.231 178.739 338.198 178.816C343.05 179.006 348.325 178.239 353.877 176.541C363.315 173.653 370.398 168.996 370.469 168.95C370.688 168.804 370.762 168.498 370.634 168.266C370.508 168.034 370.226 167.964 370.007 168.109C369.936 168.156 362.949 172.748 353.632 175.595C345.078 178.208 332.746 179.843 322.577 172.786C322.368 172.64 322.082 172.709 321.94 172.941C321.796 173.173 321.852 173.479 322.062 173.625C325.189 175.795 328.686 177.297 332.505 178.115Z" fill="#1E3A34"/>
<path fill-rule="evenodd" clip-rule="evenodd" d="M355.431 82.2808C355.431 82.2808 355.975 89.14 358.463 91.3918C358.463 91.3918 354.345 96.1628 350.123 94.9453C350.123 94.9453 352.226 84.0723 355.431 82.2808Z" fill="#1E2A2C"/>
<path fill-rule="evenodd" clip-rule="evenodd" d="M316.505 65.3508C316.603 65.9813 316.741 66.6274 316.923 67.2829L316.924 67.2856C317.456 69.1872 318.363 71.1876 319.732 73.2768L320.282 73.2407L320.829 73.2047L322.735 73.0817C322.735 73.0817 327.865 56.5864 336.142 57.5385C344.419 58.4935 348.674 75.9558 348.674 75.9558L358.63 74.1984C358.63 74.1984 363.32 61.9776 357.634 53.2834C352.899 46.0425 344.512 48.397 344.512 48.397C344.512 48.397 335.795 43.1352 327.393 47.3246C321.955 50.0332 315.143 56.4718 316.505 65.3508Z" fill="#1E2A2C"/>
<path fill-rule="evenodd" clip-rule="evenodd" d="M332.447 98.5468L332.541 103.937C333.181 104.438 333.826 104.869 334.473 105.242C343.939 110.702 353.918 103.559 353.918 103.559L353.587 84.8589L334.966 96.9124L332.447 98.5468Z" fill="#EEA293"/>
<path fill-rule="evenodd" clip-rule="evenodd" d="M332.447 98.5468L332.527 103.128C344.024 100.88 348.046 93.4763 348.046 93.4763L334.966 96.9124L332.447 98.5468Z" fill="#1E2A2C"/>
<path fill-rule="evenodd" clip-rule="evenodd" d="M325.287 75.0276C325.287 75.0276 322.16 71.4631 320.492 75.1118C318.824 78.7623 320.287 86.0634 324.926 84.7821L325.287 75.0276Z" fill="#E57165"/>
<path fill-rule="evenodd" clip-rule="evenodd" d="M338.679 135.526L339.001 134.918C327.489 128.833 323.726 114.545 322.597 103.63C321.367 91.7579 322.902 81.2047 322.917 81.0993L322.235 80.9985C322.22 81.1039 320.673 91.7431 321.91 103.701C322.638 110.737 324.175 116.851 326.474 121.873C329.361 128.178 333.467 132.772 338.679 135.526Z" fill="#FFFFFE"/>
<path fill-rule="evenodd" clip-rule="evenodd" d="M322.246 87.7764C322.246 87.7764 322.427 98.9267 334.025 98.6956C345.551 98.4701 353.245 89.2795 353.646 88.8524L353.658 88.8413L354.418 67.8135C354.418 67.8135 355.684 56.0808 344.519 54.1432C336.364 52.727 328.766 54.2116 324.994 58.5203C324.872 58.659 324.754 58.8014 324.644 58.9474C323.458 60.4598 322.721 62.291 322.552 64.4385L322.246 87.7764Z" fill="#EEA293"/>
<path fill-rule="evenodd" clip-rule="evenodd" d="M321 73.1935L324.567 72.7831C324.567 72.7831 323.656 64.186 328.281 59.697C331.253 56.8128 337.605 57.507 341.766 58.3714C341.993 58.4204 342.215 58.4666 342.433 58.5156C343.479 58.7504 344.346 58.9824 344.926 59.1488C345.172 59.2209 345.366 59.2782 345.501 59.3171C345.644 59.3624 345.718 59.3873 345.718 59.3873C345.718 59.3873 343.565 64.1019 347.149 67.5564C350.188 70.4859 346.413 77.9145 346.413 77.9145L351.704 77.8212C354.339 76.4299 355.228 70.8298 355.228 70.8298C355.228 70.8298 357.84 63.2135 354.295 57.1558C352.369 53.8639 346.49 51.7988 340.353 51.209C339.991 51.1757 339.628 51.1461 339.265 51.1212C334.465 50.7995 329.636 51.3865 326.533 52.9987C324.07 54.279 322.638 56.9866 321.824 60.0141C321.599 60.8405 321.424 61.6891 321.284 62.5405C320.418 67.8374 321 73.1935 321 73.1935Z" fill="#1E2A2C"/>
<path fill-rule="evenodd" clip-rule="evenodd" d="M343.609 66.9695C343.043 68.284 341.53 68.9043 340.206 68.3626C339.432 68.0455 338.522 67.7376 337.565 67.5463C336.206 67.2764 335.347 65.9313 335.689 64.5891C335.689 64.5891 341.081 63.9984 343.609 66.9695Z" fill="#1E2A2C"/>
<path fill-rule="evenodd" clip-rule="evenodd" d="M322.635 67.3411C323.247 68.6344 324.78 69.2011 326.084 68.6122C326.845 68.2692 327.745 67.9281 328.695 67.7035C330.043 67.3855 330.854 66.0109 330.465 64.6816C330.465 64.6816 325.056 64.2831 322.635 67.3411Z" fill="#1E2A2C"/>
<path fill-rule="evenodd" clip-rule="evenodd" d="M337.551 77.289C337.565 78.1015 339.249 78.7292 341.312 78.6932C343.374 78.6562 345.035 77.9693 345.02 77.1568C345.006 76.3451 343.323 75.7165 341.26 75.7535C339.198 75.7896 337.537 76.4773 337.551 77.289Z" fill="#E57165"/>
<path fill-rule="evenodd" clip-rule="evenodd" d="M322.36 78.9859C322.649 79.0099 322.951 79.0182 323.261 79.0127C325.322 78.9766 326.982 78.2879 326.969 77.4763C326.954 76.6647 325.27 76.0351 323.21 76.0721C322.93 76.0767 322.659 76.0943 322.398 76.1229L322.36 78.9859Z" fill="#E57165"/>
<path fill-rule="evenodd" clip-rule="evenodd" d="M337.503 74.0331C337.522 75.1479 338.043 76.0437 338.666 76.0326C339.291 76.0215 339.78 75.1082 339.761 73.9933C339.741 72.8785 339.219 71.9836 338.595 71.9947C337.971 72.0058 337.482 72.9182 337.503 74.0331Z" fill="#1E2A2C"/>
<path fill-rule="evenodd" clip-rule="evenodd" d="M326.296 74.2316C326.317 75.3464 326.838 76.2422 327.462 76.2302C328.086 76.22 328.576 75.3067 328.557 74.1918C328.536 73.077 328.015 72.1821 327.391 72.1932C326.767 72.2043 326.277 73.1167 326.296 74.2316Z" fill="#1E2A2C"/>
<path fill-rule="evenodd" clip-rule="evenodd" d="M330.581 83.9697C334.655 83.8976 337.931 80.3432 337.975 80.2951C338.145 80.1075 338.13 79.8181 337.942 79.648C337.755 79.4779 337.465 79.4918 337.294 79.6795C337.081 79.9152 332.002 85.4072 326.9 81.9008C326.691 81.7576 326.406 81.8102 326.262 82.0192C326.118 82.2281 326.172 82.5137 326.38 82.657C327.809 83.6387 329.239 83.9928 330.581 83.9697Z" fill="#1E2A2C"/>
<path fill-rule="evenodd" clip-rule="evenodd" d="M349.936 84.3931C349.99 84.516 351.518 87.8938 353.646 88.8534L353.658 88.8414L353.742 86.4961C353.742 86.4961 351.906 86.216 349.936 84.3931Z" fill="#1E2A2C"/>
<path fill-rule="evenodd" clip-rule="evenodd" d="M351.84 76.6119C351.84 76.6119 356.192 70.5449 359.541 75.1929C362.303 79.0228 357.392 89.2191 352.004 85.8515L351.84 76.6119Z" fill="#EEA293"/>
<path fill-rule="evenodd" clip-rule="evenodd" d="M352.581 84.037C352.813 84.0333 353.009 83.8558 353.03 83.6201C353.446 79.0793 357.214 77.432 357.375 77.3636C357.608 77.2647 357.717 76.9957 357.618 76.7627C357.52 76.5298 357.252 76.4198 357.019 76.5178C356.838 76.5936 352.582 78.4341 352.116 83.5369C352.093 83.7892 352.279 84.012 352.531 84.0351L352.581 84.037Z" fill="#1E2A2C"/>
<path fill-rule="evenodd" clip-rule="evenodd" d="M356.812 81.1807C356.946 81.178 357.078 81.1179 357.166 81.0042C357.323 80.8054 357.288 80.5179 357.089 80.3608C356.903 80.2147 355.234 78.9492 353.864 79.3254C353.619 79.3929 353.475 79.6453 353.543 79.8893C353.609 80.1334 353.863 80.2776 354.107 80.2101C354.895 79.9938 356.117 80.7666 356.523 81.0827C356.609 81.1502 356.712 81.1826 356.812 81.1807Z" fill="#1E2A2C"/>
<path fill-rule="evenodd" clip-rule="evenodd" d="M332.334 78.5265C332.586 78.5219 332.789 78.313 332.784 78.0597C332.779 77.8064 332.57 77.6049 332.317 77.6086C330.63 77.6391 329.825 76.7609 329.557 76.381C331.319 72.577 333.071 68.7434 333.088 68.7037C333.194 68.4735 333.092 68.2017 332.861 68.0963C332.631 67.9909 332.359 68.0926 332.253 68.3228C332.235 68.3625 330.418 72.344 328.62 76.2183C328.563 76.3431 328.564 76.4882 328.625 76.6121C328.664 76.6925 329.614 78.5755 332.334 78.5265Z" fill="#1E2A2C"/>
<path fill-rule="evenodd" clip-rule="evenodd" d="M293.873 218.49C309.655 217.238 316.296 194.62 322.719 172.747C327.779 155.519 332.558 139.246 341.37 133.71C346.068 130.759 349.745 126.105 352.299 119.88C354.333 114.922 355.663 108.959 356.252 102.157C357.252 90.5956 355.741 80.4631 355.725 80.3623L355.044 80.4658C355.06 80.5657 356.559 90.6289 355.564 102.111C354.649 112.662 351.38 126.608 341.004 133.126C331.97 138.801 327.155 155.196 322.059 172.553C315.701 194.202 309.127 216.589 293.818 217.803L293.873 218.49Z" fill="#FFFFFE"/>
<path fill-rule="evenodd" clip-rule="evenodd" d="M354.02 79.8561C353.959 80.6031 354.516 81.2576 355.263 81.3186C356.011 81.3787 356.665 80.8222 356.725 80.0743C356.786 79.3274 356.229 78.672 355.482 78.6119C354.734 78.5518 354.08 79.1083 354.02 79.8561Z" fill="#FFFFFE"/>
<path fill-rule="evenodd" clip-rule="evenodd" d="M339.002 78.9074C338.883 78.9074 338.764 78.9056 338.644 78.9019C335.125 78.8085 332.309 77.3507 332.354 75.647C332.396 74.1198 334.721 72.9135 337.736 72.7471C337.582 73.0983 337.493 73.5467 337.502 74.0329C337.522 75.1413 338.036 76.0325 338.655 76.0325C338.659 76.0325 338.662 76.0325 338.666 76.0325C339.291 76.0214 339.78 75.108 339.76 73.9932C339.752 73.531 339.658 73.1067 339.505 72.7683C342.692 73.0216 345.141 74.3972 345.098 75.9872C345.092 76.2562 345.013 76.515 344.873 76.76C344.435 76.1702 343.065 75.7514 341.43 75.7514C341.374 75.7514 341.317 75.7524 341.26 75.7533C339.198 75.7893 337.537 76.4771 337.551 77.2887C337.564 78.0782 339.156 78.6939 341.14 78.6939C341.197 78.6939 341.253 78.6939 341.311 78.6929C340.599 78.8316 339.821 78.9074 339.002 78.9074Z" fill="#F6CABC"/>
<path fill-rule="evenodd" clip-rule="evenodd" d="M341.14 78.6936C339.156 78.6936 337.564 78.078 337.551 77.2885C337.537 76.4769 339.198 75.7891 341.26 75.7531C341.317 75.7521 341.374 75.7512 341.43 75.7512C343.066 75.7512 344.436 76.17 344.874 76.7598C344.365 77.6491 343.039 78.3562 341.311 78.6927C341.254 78.6936 341.197 78.6936 341.14 78.6936Z" fill="#F1B0A5"/>
<path fill-rule="evenodd" clip-rule="evenodd" d="M338.655 76.0325C338.036 76.0325 337.522 75.1414 337.502 74.033C337.493 73.5468 337.582 73.0984 337.736 72.7471C337.971 72.7342 338.21 72.7268 338.452 72.7268C338.571 72.7268 338.69 72.7287 338.809 72.7324C339.044 72.7379 339.277 72.7508 339.505 72.7684C339.658 73.1067 339.752 73.531 339.76 73.9933C339.78 75.1081 339.291 76.0214 338.666 76.0325C338.662 76.0325 338.659 76.0325 338.655 76.0325Z" fill="#7E908D"/>
<path fill-rule="evenodd" clip-rule="evenodd" d="M319.827 78.4489C317.584 77.9137 316.034 76.7831 316.069 75.5157C316.1 74.3426 317.478 73.3591 319.483 72.8904C319.565 73.0189 319.647 73.1474 319.732 73.2768L320.282 73.2407L320.829 73.2047L321 73.1936H321.006L322.438 73.1002L322.433 73.4691C321.737 73.4977 321.037 73.9202 320.492 75.1118C320.063 76.0519 319.841 77.2333 319.827 78.4489Z" fill="#FAEEE4"/>
<path fill-rule="evenodd" clip-rule="evenodd" d="M319.732 73.2766C319.647 73.1471 319.565 73.0187 319.483 72.8902C319.943 72.782 320.435 72.7025 320.951 72.6526C320.979 72.9937 320.999 73.1851 321 73.1934L320.829 73.2045L320.282 73.2405L319.732 73.2766ZM321.006 73.1934L322.439 73.0279L322.438 73.1L321.006 73.1934Z" fill="#7E908D"/>
<path fill-rule="evenodd" clip-rule="evenodd" d="M322.363 78.7705C322.361 78.7705 322.359 78.7705 322.358 78.7705C321.456 78.7465 320.601 78.6328 319.827 78.4488C319.841 77.2332 320.063 76.0518 320.492 75.1117C321.037 73.9201 321.737 73.4977 322.433 73.469L322.399 76.1221C322.398 76.1221 322.398 76.1221 322.398 76.123L322.363 78.7705Z" fill="#F1B0A5"/>
<path fill-rule="evenodd" clip-rule="evenodd" d="M326.643 78.0919C326.856 77.9024 326.972 77.6935 326.969 77.4762C326.955 76.6868 325.362 76.0702 323.381 76.0702C323.324 76.0702 323.267 76.0711 323.21 76.072C322.93 76.0767 322.66 76.0942 322.399 76.122L322.439 73.0279L324.45 72.7959C325.163 72.9253 325.82 73.113 326.395 73.3459C326.327 73.614 326.291 73.9144 326.297 74.2315C326.317 75.3399 326.832 76.2301 327.451 76.2301C327.455 76.2301 327.459 76.2301 327.462 76.2301C327.956 76.2218 328.365 75.6496 328.505 74.8592C328.703 75.1596 328.81 75.4767 328.813 75.804C328.749 75.9417 328.684 76.0794 328.621 76.2181C328.567 76.3337 328.564 76.4658 328.612 76.5832C328.289 77.1869 327.59 77.7092 326.643 78.0919Z" fill="#F6CABC"/>
<path fill-rule="evenodd" clip-rule="evenodd" d="M321.001 73.1933C321 73.185 320.979 72.9936 320.952 72.6525C321.344 72.6156 321.75 72.5952 322.166 72.5952C322.284 72.5952 322.403 72.5971 322.523 72.6008C323.196 72.6183 323.843 72.6858 324.45 72.7958L322.439 73.0278L321.006 73.1933H321.001Z" fill="#7E908D"/>
<path fill-rule="evenodd" clip-rule="evenodd" d="M322.716 78.7761C322.6 78.7761 322.481 78.7742 322.363 78.7705L322.398 76.123C322.398 76.1221 322.398 76.1221 322.399 76.1221C322.66 76.0943 322.93 76.0768 323.21 76.0722C323.267 76.0712 323.324 76.0703 323.381 76.0703C325.362 76.0703 326.955 76.6869 326.968 77.4764C326.972 77.6936 326.856 77.9025 326.643 78.092C325.585 78.5209 324.217 78.7761 322.716 78.7761Z" fill="#F1B0A5"/>
<path fill-rule="evenodd" clip-rule="evenodd" d="M327.451 76.2304C326.832 76.2304 326.317 75.3402 326.296 74.2318C326.291 73.9147 326.327 73.6143 326.395 73.3462C327.372 73.7409 328.115 74.266 328.505 74.8595C328.365 75.6498 327.956 76.2221 327.462 76.2304C327.458 76.2304 327.455 76.2304 327.451 76.2304Z" fill="#7E908D"/>
<path fill-rule="evenodd" clip-rule="evenodd" d="M328.612 76.5837C328.564 76.4663 328.567 76.3341 328.621 76.2186C328.684 76.0799 328.749 75.9422 328.813 75.8044C328.813 75.8211 328.813 75.8386 328.812 75.8562C328.805 76.1086 328.736 76.3526 328.612 76.5837Z" fill="#7E908D"/>
<path fill-rule="evenodd" clip-rule="evenodd" d="M328.779 75.8441C328.866 75.8404 328.953 75.808 329.021 75.7433C330.319 74.5305 332.12 75.6185 332.196 75.6657C332.372 75.7729 332.601 75.7193 332.709 75.5446C332.817 75.3698 332.764 75.1406 332.59 75.0324C331.781 74.5286 329.887 73.9148 328.512 75.1998C328.362 75.3393 328.354 75.576 328.495 75.7257C328.57 75.808 328.676 75.8478 328.779 75.8441Z" fill="#374749"/>
<path fill-rule="evenodd" clip-rule="evenodd" d="M353.649 74.7227C353.99 74.5027 354.185 74.2808 354.547 74.0922C349.842 73.2122 345.155 75.1507 344.905 75.2625C344.717 75.3467 344.633 75.5667 344.717 75.7543C344.801 75.942 345.022 76.0261 345.209 75.9429C345.264 75.9179 349.451 74.2817 353.649 74.7227Z" fill="#374749"/>
<path fill-rule="evenodd" clip-rule="evenodd" d="M364.089 279.005C364.089 279.005 365.629 279.763 368.117 281.041C368.825 281.404 369.611 281.809 370.459 282.251C371.583 282.837 372.818 283.487 374.131 284.189C374.881 284.588 375.657 285.006 376.453 285.437C386.358 290.802 399.339 298.379 403.979 303.537C404.303 303.899 404.618 304.256 404.917 304.609C411.898 312.787 412.262 318.267 414.138 317.701C416.097 317.112 417.678 312.889 415.758 309.286C414.429 306.789 413.916 303.547 412.262 299.734C411.813 298.703 411.283 297.631 410.63 296.519C407.746 291.611 402.526 285.916 399.842 281.908C399.67 281.65 399.508 281.398 399.356 281.154C397.202 277.665 397.607 271.837 392.777 268.682C390.416 267.141 387.224 266.593 384.01 266.546C383.438 266.538 382.865 266.546 382.3 266.567C381.45 266.598 380.612 266.659 379.798 266.737C378.673 266.85 377.595 266.999 376.602 267.165C375.652 267.321 374.779 267.491 374.022 267.653C372.197 268.042 371.04 268.387 371.04 268.387L364.089 279.005Z" fill="#FFFFFE"/>
<path fill-rule="evenodd" clip-rule="evenodd" d="M384.01 266.546C385.996 271.52 391.021 281.369 399.842 281.908C399.67 281.65 399.508 281.398 399.356 281.154C397.202 277.665 397.607 271.837 392.777 268.682C390.416 267.141 387.224 266.593 384.01 266.546Z" fill="#374749"/>
<path fill-rule="evenodd" clip-rule="evenodd" d="M404.917 304.609C411.898 312.787 412.262 318.267 414.139 317.7C416.097 317.112 417.678 312.889 415.758 309.285C414.429 306.789 413.917 303.547 412.262 299.733C409.713 300.648 406.855 302.156 404.917 304.609Z" fill="#374749"/>
<path fill-rule="evenodd" clip-rule="evenodd" d="M368.117 281.041C368.825 281.404 369.611 281.809 370.459 282.251C372.822 279.83 374.58 276.565 375.643 272.576C376.179 270.56 376.458 268.671 376.602 267.164C375.652 267.321 374.779 267.491 374.022 267.652C373.873 268.912 373.622 270.392 373.206 271.948C372.366 275.089 370.848 278.533 368.117 281.041Z" fill="#374749"/>
<path fill-rule="evenodd" clip-rule="evenodd" d="M374.131 284.189C374.881 284.588 375.657 285.006 376.453 285.437C379.281 282.648 381.157 278.711 381.943 273.849C382.428 270.851 382.395 268.176 382.3 266.566C381.45 266.598 380.612 266.659 379.798 266.737C379.991 270.191 379.872 279.153 374.131 284.189Z" fill="#374749"/>
<path fill-rule="evenodd" clip-rule="evenodd" d="M371.487 263.488C371.246 280.326 360.727 280.733 360.727 280.733C360.727 280.733 358.579 280.55 353.694 278.926C353.236 278.773 352.756 278.61 352.25 278.431C349.086 277.315 344.961 275.664 339.758 273.227C339.144 272.938 338.51 272.638 337.863 272.324C334.457 270.682 330.623 268.72 326.334 266.377C319.852 262.836 312.33 258.431 303.674 252.938C278.728 237.117 257.217 215.855 249.755 198.859C244.712 187.393 246.078 177.866 257.113 173.271C259.057 172.465 261.074 172.047 263.112 171.936C276.777 171.196 289.678 184.968 289.678 184.968C316.063 205.116 323.667 221.376 334.149 234.708C334.581 235.261 335.02 235.809 335.464 236.35C335.751 236.698 336.045 237.043 336.35 237.392C338.055 239.354 340.026 241.304 342.143 243.202C349.197 249.534 357.884 255.316 363.969 259.072C364.398 259.337 364.814 259.592 365.216 259.837C368.988 262.129 371.487 263.488 371.487 263.488Z" fill="#1E2A2C"/>
<path fill-rule="evenodd" clip-rule="evenodd" d="M365.216 259.837C364.889 261.029 364.464 262.217 363.973 263.389C363.786 263.83 363.592 264.268 363.389 264.702C360.369 271.17 355.538 276.872 353.693 278.926C353.236 278.773 352.756 278.61 352.25 278.431C353.581 276.973 359.009 270.807 362.192 263.927C362.395 263.49 362.589 263.052 362.772 262.61C363.257 261.436 363.666 260.25 363.968 259.072C364.398 259.338 364.814 259.592 365.216 259.837Z" fill="#374749"/>
<path fill-rule="evenodd" clip-rule="evenodd" d="M249.753 198.86C262.61 188.907 263.692 177.868 263.112 171.938C261.074 172.048 259.058 172.464 257.114 173.273C246.078 177.864 244.713 187.39 249.753 198.86Z" fill="#374749"/>
<path fill-rule="evenodd" clip-rule="evenodd" d="M363.973 263.389C363.786 263.83 363.592 264.267 363.389 264.702C362.999 264.451 362.598 264.195 362.192 263.927C352.499 257.576 338.214 246.095 322.206 231.708C307.2 218.224 290.167 201.49 288.236 196.617C287.192 193.986 287.229 192.04 288.344 190.838C290.015 189.037 293.478 189.622 295.028 190.001C295.428 190.098 295.664 190.512 295.541 190.903C295.446 191.206 295.169 191.405 294.864 191.405L294.698 191.383C293.172 191.016 290.449 190.653 289.384 191.804C288.497 192.761 288.989 194.665 289.555 196.093C291.116 200.025 305.245 214.558 323.153 230.653C335.811 242.025 351.692 255.302 362.772 262.61C363.179 262.878 363.581 263.139 363.973 263.389Z" fill="#374749"/>
<path fill-rule="evenodd" clip-rule="evenodd" d="M368.42 260.526C365.375 268.694 361.402 275.836 355.272 280.591C355.272 280.591 358.658 284.477 362.87 283.244C366.087 282.302 374.643 270.434 374.198 262.926C372.125 261.071 370.18 260.139 368.42 260.526Z" fill="#374749"/>
<path fill-rule="evenodd" clip-rule="evenodd" d="M306.493 277.191C306.493 277.191 304.879 277.773 302.263 278.768C301.519 279.051 300.694 279.365 299.803 279.71C298.62 280.168 297.322 280.677 295.938 281.229C295.148 281.542 294.331 281.871 293.491 282.21C283.052 286.442 269.31 292.532 264.126 297.142C263.763 297.466 263.411 297.786 263.074 298.103C255.229 305.457 254.258 310.862 252.457 310.091C250.575 309.288 249.474 304.915 251.781 301.547C253.379 299.215 254.249 296.05 256.317 292.443C256.876 291.469 257.522 290.461 258.294 289.428C261.706 284.872 267.526 279.792 270.639 276.107C270.839 275.87 271.028 275.637 271.206 275.411C273.734 272.182 273.979 266.346 279.129 263.746C281.646 262.478 284.88 262.287 288.079 262.598C288.649 262.653 289.216 262.725 289.777 262.808C290.618 262.934 291.443 263.087 292.244 263.255C293.349 263.493 294.404 263.761 295.371 264.035C296.298 264.295 297.147 264.561 297.881 264.806C299.652 265.396 300.764 265.867 300.764 265.867L306.493 277.191Z" fill="#FFFFFE"/>
<path fill-rule="evenodd" clip-rule="evenodd" d="M288.079 262.598C285.552 267.321 279.465 276.551 270.639 276.107C270.838 275.87 271.028 275.637 271.205 275.411C273.734 272.182 273.979 266.346 279.129 263.746C281.646 262.478 284.879 262.287 288.079 262.598Z" fill="#374749"/>
<path fill-rule="evenodd" clip-rule="evenodd" d="M263.074 298.103C255.229 305.457 254.258 310.862 252.457 310.091C250.575 309.288 249.474 304.915 251.781 301.547C253.379 299.215 254.249 296.05 256.317 292.443C258.748 293.635 261.421 295.452 263.074 298.103Z" fill="#374749"/>
<path fill-rule="evenodd" clip-rule="evenodd" d="M302.263 278.768C301.519 279.051 300.693 279.365 299.802 279.71C297.722 277.042 296.338 273.602 295.724 269.52C295.415 267.457 295.347 265.548 295.371 264.034C296.298 264.295 297.146 264.561 297.88 264.806C297.89 266.076 297.976 267.574 298.216 269.166C298.702 272.381 299.828 275.972 302.263 278.768Z" fill="#374749"/>
<path fill-rule="evenodd" clip-rule="evenodd" d="M292.243 263.255C291.443 263.087 290.617 262.935 289.777 262.808C289.503 264.398 289.173 267.052 289.321 270.086C289.564 275.004 290.99 279.125 293.49 282.21C294.331 281.871 295.148 281.542 295.937 281.229C290.791 275.587 291.668 266.667 292.243 263.255Z" fill="#374749"/>
<path fill-rule="evenodd" clip-rule="evenodd" d="M428.942 212.035C419.016 227.713 395.035 244.291 369.398 256.8C344.956 268.727 329.609 274.378 320.744 277.047C320.447 277.137 320.158 277.223 319.878 277.304C313.248 279.249 310.568 279.422 310.568 279.422C310.568 279.422 300.159 277.851 301.788 261.089C301.788 261.089 304.859 258.686 309.452 255.094C309.849 254.785 310.256 254.466 310.674 254.138C319.41 247.306 332.657 236.948 341.334 230.172C365.649 211.189 367.9 212.285 390.313 193.653C390.313 193.653 404.419 181.108 417.375 181.885C420.188 182.053 422.937 182.734 425.471 184.133C436.457 190.214 436.23 200.524 428.942 212.035Z" fill="#1E2A2C"/>
<path fill-rule="evenodd" clip-rule="evenodd" d="M320.743 277.047L320.641 277.17C320.54 277.265 320.419 277.325 320.292 277.35C320.153 277.378 320.01 277.361 319.878 277.304L319.65 277.145C314.743 271.993 311.804 263.721 310.38 258.723C310.236 258.219 310.108 257.749 309.994 257.32C309.74 256.354 309.562 255.586 309.451 255.094C309.849 254.785 310.256 254.466 310.673 254.138L310.695 254.214C310.701 254.249 310.891 255.168 311.276 256.643C311.388 257.068 311.515 257.542 311.66 258.053C313.034 262.898 315.924 271.201 320.665 276.179C320.896 276.418 320.918 276.779 320.743 277.047Z" fill="#374749"/>
<path fill-rule="evenodd" clip-rule="evenodd" d="M417.375 181.886C417.414 187.495 418.353 206.179 428.942 212.035C436.231 200.524 436.457 190.214 425.471 184.133C422.938 182.733 420.187 182.054 417.375 181.886Z" fill="#374749"/>
<path fill-rule="evenodd" clip-rule="evenodd" d="M390.461 200.498C388 205.125 369.215 219.865 352.804 231.6C336.484 243.271 321.933 252.598 311.66 258.052C311.227 258.284 310.799 258.507 310.381 258.723C310.237 258.219 310.108 257.749 309.994 257.319C310.415 257.1 310.843 256.874 311.277 256.643C322.971 250.384 338.981 239.738 351.98 230.445C371.565 216.438 387.22 203.563 389.208 199.831C389.929 198.474 390.627 196.634 389.855 195.587C388.921 194.326 386.176 194.38 384.618 194.577L384.53 194.582C384.195 194.582 383.902 194.343 383.837 194.009C383.758 193.605 384.036 193.22 384.445 193.167C386.028 192.961 389.534 192.765 390.995 194.741C391.972 196.061 391.792 197.998 390.461 200.498Z" fill="#374749"/>
<path fill-rule="evenodd" clip-rule="evenodd" d="M305.164 258.487C307.283 266.943 310.438 274.481 316.002 279.888C316.002 279.888 312.206 283.374 308.157 281.681C305.064 280.387 297.88 267.642 299.156 260.23C301.421 258.617 303.458 257.906 305.164 258.487Z" fill="#374749"/>
<path fill-rule="evenodd" clip-rule="evenodd" d="M400.403 130.845C400.403 130.845 427.922 174.328 422.586 186.867C418.964 195.376 410.6 195.033 401.668 182.01C389.099 163.68 380.347 143.534 380.347 143.534L400.403 130.845Z" fill="#EEA293"/>
<path fill-rule="evenodd" clip-rule="evenodd" d="M366.972 204.765C374.725 199.548 384.254 193.413 388.026 190.085C397.329 181.873 413.654 168.72 422.093 175.313C422.093 175.313 429.025 189.02 417.47 197.974C406.461 206.504 381.849 215.901 370.377 219.465C369.087 214.597 367.608 209.745 366.972 204.765Z" fill="#EEA293"/>
<path fill-rule="evenodd" clip-rule="evenodd" d="M400.477 180.785C400.6 180.779 400.723 180.735 400.825 180.648C405.15 176.953 411.263 174.681 411.324 174.659C411.621 174.549 411.774 174.219 411.665 173.922C411.556 173.623 411.226 173.471 410.927 173.581C410.67 173.675 404.56 175.947 400.079 179.775C399.838 179.981 399.809 180.344 400.015 180.585C400.134 180.725 400.307 180.792 400.477 180.785Z" fill="#E57165"/>
<path fill-rule="evenodd" clip-rule="evenodd" d="M401.42 180.021C401.689 180.009 401.92 179.81 401.962 179.533C402.347 176.971 405.574 174.495 405.606 174.47C405.859 174.279 405.909 173.919 405.717 173.666C405.526 173.414 405.165 173.365 404.912 173.556C404.764 173.669 401.28 176.344 400.827 179.362C400.78 179.676 400.996 179.969 401.309 180.015L401.42 180.021Z" fill="#E57165"/>
<path fill-rule="evenodd" clip-rule="evenodd" d="M375.687 110.151C375.687 110.151 394.728 113.623 413.006 149.26C413.006 149.26 400.82 158.22 385.786 160.45C385.786 160.45 372.007 146.925 368.355 135.094C364.701 123.261 368.685 114.566 375.687 110.151Z" fill="#157663"/>
<path fill-rule="evenodd" clip-rule="evenodd" d="M385.166 160.288C385.062 160.288 384.956 160.251 384.869 160.179C375.358 152.183 369.884 140.091 369.829 139.97C369.725 139.737 369.829 139.463 370.062 139.359C370.295 139.254 370.569 139.359 370.673 139.593C370.727 139.712 376.119 151.615 385.464 159.471C385.659 159.635 385.685 159.926 385.52 160.122C385.429 160.23 385.298 160.288 385.166 160.288Z" fill="#1E3A34"/>
<path fill-rule="evenodd" clip-rule="evenodd" d="M374.274 147.481L374.196 147.475C370.792 146.896 367.713 144.585 367.585 144.486C367.381 144.331 367.342 144.042 367.496 143.839C367.65 143.635 367.94 143.596 368.143 143.749C368.173 143.772 371.174 146.024 374.351 146.563C374.602 146.606 374.772 146.845 374.729 147.096C374.691 147.322 374.495 147.481 374.274 147.481Z" fill="#1E3A34"/>
<path fill-rule="evenodd" clip-rule="evenodd" d="M374.046 234.189L379.071 224.629C380.324 222.246 378.577 219.388 375.884 219.416L296.88 220.269L299.211 232.507L374.046 234.189Z" fill="#B74645"/>
<path fill-rule="evenodd" clip-rule="evenodd" d="M300.803 232.901H371.506C373.212 232.901 374.443 231.518 374.254 229.812L369.435 186.13C369.245 184.424 367.71 183.041 366.004 183.041H295.301C293.595 183.041 292.364 184.424 292.553 186.13L297.372 229.812C297.562 231.518 299.097 232.901 300.803 232.901Z" fill="#E4705F"/>
<path fill-rule="evenodd" clip-rule="evenodd" d="M372.331 233.381L372.406 233.376C372.734 233.334 372.965 233.037 372.924 232.71L367.055 185.921C367.014 185.594 366.717 185.363 366.39 185.403C366.062 185.444 365.831 185.743 365.872 186.07L371.741 232.857C371.779 233.161 372.035 233.381 372.331 233.381Z" fill="#B74645"/>
<path fill-rule="evenodd" clip-rule="evenodd" d="M337.935 207.343C338.205 210.853 335.62 213.875 332.162 214.097C328.704 214.317 325.681 211.651 325.411 208.142C325.141 204.634 327.726 201.611 331.184 201.389C334.642 201.169 337.664 203.835 337.935 207.343Z" fill="#B74645"/>
<path fill-rule="evenodd" clip-rule="evenodd" d="M300.234 235.301H371.912C373.488 235.301 374.702 233.911 374.488 232.35L373.807 227.354H296.88L297.658 233.052C297.834 234.341 298.935 235.301 300.234 235.301Z" fill="#B74645"/>
<path fill-rule="evenodd" clip-rule="evenodd" d="M480.598 235.543C480.598 235.543 481.344 231.126 480.809 224.363C479.955 213.557 472.526 204.343 462.13 201.271C453.539 198.733 442.197 197.165 430.593 200.673C429.742 200.93 428.887 201.215 428.035 201.528C403.261 210.636 406.905 258.003 410.912 284.598C414.92 311.198 415.285 327.226 426.58 329.777C431.766 330.949 439.332 331.042 446.003 330.805C447.392 330.755 448.742 330.69 450.022 330.618C450.022 330.618 464.065 331.841 471.267 325.667C478.47 319.493 480.598 235.543 480.598 235.543Z" fill="#DF7A54"/>
<path fill-rule="evenodd" clip-rule="evenodd" d="M446.003 330.805C439.332 331.042 431.766 330.949 426.58 329.777C415.285 327.226 414.92 311.197 410.912 284.598C406.905 258.003 403.261 210.636 428.035 201.528C428.887 201.215 429.742 200.93 430.593 200.673C434.814 201.681 438.694 204.481 440.787 210.636C446.464 227.329 437.453 285.334 446.003 330.805Z" fill="#EB9462"/>
<path fill-rule="evenodd" clip-rule="evenodd" d="M432.019 326.39C426.871 326.39 422.871 324.265 420.425 320.225C416.599 313.904 411.078 259.67 410.845 257.365C410.817 257.083 411.023 256.83 411.305 256.802C411.593 256.774 411.841 256.979 411.869 257.261C411.925 257.823 417.598 313.569 421.306 319.692C423.651 323.568 427.403 325.472 432.436 325.357C436.258 325.268 439.426 323.989 439.459 323.977C439.723 323.869 440.021 323.995 440.129 324.257C440.237 324.521 440.112 324.821 439.848 324.929C439.713 324.984 436.497 326.286 432.49 326.385C432.333 326.388 432.175 326.39 432.019 326.39Z" fill="#DF7A54"/>
<path fill-rule="evenodd" clip-rule="evenodd" d="M436.996 216.503C436.711 216.503 436.481 216.273 436.481 215.99C436.481 214.352 435.337 210.391 432.581 208.216C430.816 206.824 428.717 206.405 426.345 206.972C420.329 208.41 418.565 216.024 418.547 216.1C418.486 216.378 418.21 216.554 417.933 216.491C417.657 216.43 417.481 216.156 417.544 215.878C417.618 215.539 419.458 207.56 426.106 205.971C428.8 205.327 431.193 205.811 433.218 207.408C436.146 209.719 437.51 213.895 437.51 215.99C437.51 216.273 437.279 216.503 436.996 216.503Z" fill="#DF7A54"/>
<path fill-rule="evenodd" clip-rule="evenodd" d="M434.299 219.686C434.299 219.686 433.894 210.585 427.025 211.305C420.155 212.026 419.824 227.043 425.967 228.984C434.953 231.824 434.299 219.686 434.299 219.686Z" fill="#DF7A54"/>
<path fill-rule="evenodd" clip-rule="evenodd" d="M172.352 372.118C172.352 374.392 157.504 376.236 139.189 376.236C120.873 376.236 106.025 374.392 106.025 372.118C106.025 369.845 120.873 368.002 139.189 368.002C157.504 368.002 172.352 369.845 172.352 372.118Z" fill="black" fill-opacity="0.08"/>
<path fill-rule="evenodd" clip-rule="evenodd" d="M144.772 300.203C144.061 300.203 143.48 299.635 143.466 298.921C143.217 285.326 154.115 279.436 154.579 279.191C155.217 278.856 156.007 279.102 156.343 279.74C156.678 280.378 156.434 281.167 155.797 281.503C155.772 281.516 153.253 282.873 150.81 285.702C147.579 289.442 145.987 293.874 146.079 298.874C146.092 299.595 145.518 300.191 144.796 300.203H144.772Z" fill="#157663"/>
<path fill-rule="evenodd" clip-rule="evenodd" d="M140.557 266.444C140.557 266.444 125.386 237.83 179.812 217.769C182.618 216.734 185.457 219.215 184.785 222.131C181.352 237.027 170.086 271.857 140.557 266.444Z" fill="#1E3A34"/>
<path fill-rule="evenodd" clip-rule="evenodd" d="M125.628 297.615L125.439 297.602C124.725 297.497 124.23 296.835 124.334 296.121C128.103 270.09 147.5 257.983 149.701 256.689C150.319 256.319 151.13 256.518 151.499 257.138C151.868 257.758 151.673 258.554 151.053 258.924L151.026 258.94C150.108 259.481 145.267 262.471 140.065 268.312C132.883 276.375 128.46 285.857 126.919 296.495C126.825 297.145 126.266 297.615 125.628 297.615Z" fill="#1E3A34"/>
<path fill-rule="evenodd" clip-rule="evenodd" d="M133.622 297.615L133.56 297.613C132.839 297.579 132.282 296.967 132.316 296.247C132.842 285.108 125.772 274.946 125.701 274.845C125.285 274.256 125.425 273.44 126.015 273.024C126.605 272.608 127.42 272.75 127.836 273.339C128.148 273.782 135.493 284.344 134.926 296.37C134.893 297.07 134.315 297.615 133.622 297.615Z" fill="#1E3A34"/>
<path fill-rule="evenodd" clip-rule="evenodd" d="M137.376 299.526H137.341C136.62 299.506 136.051 298.906 136.069 298.184L137.182 255.817C137.201 255.096 137.798 254.528 138.522 254.545C139.244 254.565 139.813 255.164 139.794 255.887L138.681 298.254C138.663 298.963 138.082 299.526 137.376 299.526Z" fill="#157663"/>
<path fill-rule="evenodd" clip-rule="evenodd" d="M128.288 275.569C128.288 275.569 97.4229 285.379 87.4152 228.244C86.8994 225.298 89.8473 222.948 92.5956 224.13C106.638 230.171 138.892 247.483 128.288 275.569Z" fill="#1E3A34"/>
<path fill-rule="evenodd" clip-rule="evenodd" d="M148.284 286.565C148.284 286.565 176.03 303.271 199.024 250.018C200.21 247.271 197.887 244.302 194.94 244.814C179.878 247.432 144.487 256.785 148.284 286.565Z" fill="#157663"/>
<path fill-rule="evenodd" clip-rule="evenodd" d="M143.196 270.472C141.048 274.916 134.563 274.428 133.088 269.716C126.507 248.7 115.479 204.154 138.313 199.042C163.933 193.306 155.348 245.334 143.196 270.472Z" fill="#157663"/>
<path fill-rule="evenodd" clip-rule="evenodd" d="M137.933 273.323L137.903 273.322C137.51 273.306 137.203 272.975 137.22 272.581L139.632 213.024C139.647 212.631 139.983 212.324 140.372 212.341C140.766 212.357 141.072 212.689 141.055 213.081L138.643 272.639C138.629 273.023 138.313 273.323 137.933 273.323Z" fill="#1E3A34"/>
<path fill-rule="evenodd" clip-rule="evenodd" d="M149.048 286.653C148.842 286.653 148.638 286.564 148.496 286.392C148.247 286.087 148.292 285.637 148.596 285.389L181.578 258.397C181.884 258.148 182.332 258.194 182.581 258.498C182.83 258.802 182.786 259.252 182.481 259.501L149.499 286.492C149.367 286.6 149.207 286.653 149.048 286.653Z" fill="#1E3A34"/>
<path fill-rule="evenodd" clip-rule="evenodd" d="M172.847 294.818L171.005 303.248L170.476 305.675L170.407 305.999L169.356 310.805L169.136 311.816L168.826 313.232L168.535 314.568L155.975 371.933H122.307L119.827 360.609L119.293 358.182L118.17 353.051L109.74 314.568L109.449 313.232L109.139 311.816L108.919 310.805L107.868 305.999L107.798 305.675L105.429 294.818H172.847Z" fill="#E4705F"/>
<path fill-rule="evenodd" clip-rule="evenodd" d="M171.005 303.249L170.476 305.675H107.798L107.269 303.249H171.005Z" fill="#B74645"/>
<path fill-rule="evenodd" clip-rule="evenodd" d="M169.355 310.805L169.135 311.816L168.826 313.232H109.448L109.139 311.816L108.919 310.805H169.355Z" fill="#B74645"/>
<path fill-rule="evenodd" clip-rule="evenodd" d="M160.64 350.625L160.109 353.052H118.17L117.638 350.625H160.64Z" fill="#B74645"/>
<path fill-rule="evenodd" clip-rule="evenodd" d="M158.985 358.182L158.454 360.609H119.827L119.293 358.182H158.985Z" fill="#B74645"/>
<path fill-rule="evenodd" clip-rule="evenodd" d="M593.344 372.118C593.344 374.392 564.99 376.236 530.015 376.236C495.039 376.236 466.685 374.392 466.685 372.118C466.685 369.845 495.039 368.002 530.015 368.002C564.99 368.002 593.344 369.845 593.344 372.118Z" fill="black" fill-opacity="0.08"/>
<path fill-rule="evenodd" clip-rule="evenodd" d="M513.387 197.14C513.387 197.14 505.925 199.265 497.694 188.598C491.744 180.89 481.214 164.438 466.685 164.157C466.685 164.157 483.928 156.684 499.144 164.294C514.36 171.905 522.48 191.604 513.387 197.14Z" fill="#157663"/>
<path fill-rule="evenodd" clip-rule="evenodd" d="M517.834 228.038H517.809C517.537 228.024 517.328 227.792 517.342 227.52C517.346 227.418 517.825 217.136 515.78 205.433C513.904 194.689 509.458 180.512 498.937 173.984C498.705 173.841 498.634 173.538 498.778 173.305C498.922 173.074 499.225 173.003 499.456 173.147C504.254 176.123 508.231 180.852 511.276 187.2C513.699 192.25 515.542 198.333 516.755 205.281C518.814 217.091 518.331 227.465 518.326 227.57C518.312 227.833 518.095 228.038 517.834 228.038Z" fill="#1E3A34"/>
<path fill-rule="evenodd" clip-rule="evenodd" d="M519.038 173.651C519.038 173.651 526.591 171.883 528.602 158.559C530.055 148.931 531.264 129.436 543.826 122.13C543.826 122.13 525.125 123.978 515.525 138.023C505.924 152.069 508.4 173.232 519.038 173.651Z" fill="#157663"/>
<path fill-rule="evenodd" clip-rule="evenodd" d="M529.433 228.907C529.232 228.907 529.043 228.782 528.97 228.583C528.92 228.447 523.939 214.716 520.306 197.776C518.169 187.819 516.908 178.714 516.557 170.715C516.116 160.682 517.114 152.36 519.523 145.978C519.62 145.723 519.904 145.595 520.158 145.69C520.413 145.786 520.541 146.071 520.445 146.325C515.086 160.524 517.935 182.029 521.27 197.569C524.89 214.444 529.846 228.109 529.896 228.245C529.989 228.501 529.858 228.783 529.601 228.878L529.433 228.907Z" fill="#1E3A34"/>
<path fill-rule="evenodd" clip-rule="evenodd" d="M532.25 180.174C532.25 180.174 539.937 181.224 546.578 169.501C551.379 161.028 559.479 143.254 573.823 140.922C573.823 140.922 555.698 135.962 541.709 145.646C527.72 155.33 522.466 175.979 532.25 180.174Z" fill="#157663"/>
<path fill-rule="evenodd" clip-rule="evenodd" d="M533.427 228.908C533.196 228.908 532.99 228.745 532.944 228.509C532.918 228.381 530.401 215.422 530.327 199.925C530.285 190.813 531.082 182.614 532.697 175.557C534.724 166.699 538.057 159.615 542.6 154.504C542.779 154.3 543.091 154.282 543.295 154.463C543.497 154.644 543.517 154.955 543.335 155.158C533.278 166.476 531.246 185.747 531.313 199.921C531.386 215.325 533.886 228.192 533.911 228.319C533.964 228.586 533.79 228.846 533.523 228.898L533.427 228.908Z" fill="#1E3A34"/>
<path fill-rule="evenodd" clip-rule="evenodd" d="M545.457 198.104C545.457 198.104 552.782 200.66 561.621 190.49C568.009 183.14 579.478 167.331 594 167.896C594 167.896 577.223 159.432 561.589 166.143C545.955 172.855 536.702 192.048 545.457 198.104Z" fill="#157663"/>
<path fill-rule="evenodd" clip-rule="evenodd" d="M538.325 228.907C538.06 228.907 537.841 228.696 537.833 228.429C537.83 228.34 537.61 219.426 540.302 208.457C541.886 202.009 544.151 196.116 547.035 190.943C550.647 184.463 555.245 179.1 560.701 175.003C560.918 174.839 561.227 174.883 561.39 175.1C561.554 175.318 561.51 175.627 561.292 175.79C549.177 184.889 543.712 198.704 541.261 208.691C538.6 219.533 538.815 228.313 538.818 228.4C538.826 228.673 538.611 228.899 538.339 228.907H538.325Z" fill="#1E3A34"/>
<path fill-rule="evenodd" clip-rule="evenodd" d="M562.07 237.957C562.049 239.118 561.864 240.292 561.523 241.473C560.032 246.641 555.582 250.43 550.259 251.19C537.264 253.047 523.859 252.916 510.106 251.108C504.088 250.315 499.177 245.739 498.224 239.744C498.062 238.731 498.02 237.725 498.103 236.725C498.387 233.269 500.161 229.898 503.641 226.631H556.495C560.387 230.287 562.143 234.067 562.07 237.957Z" fill="#E4705F"/>
<path fill-rule="evenodd" clip-rule="evenodd" d="M532.115 243.319C515.237 243.319 504.345 240.045 498.179 237.297C497.93 237.186 497.819 236.895 497.93 236.647C498.041 236.398 498.332 236.286 498.58 236.398C504.658 239.106 515.41 242.334 532.115 242.334C543.912 242.334 553.845 240.741 561.638 237.599C561.89 237.496 562.178 237.619 562.279 237.871C562.38 238.124 562.258 238.41 562.007 238.513C554.095 241.702 544.038 243.319 532.115 243.319Z" fill="#B74645"/>
<path fill-rule="evenodd" clip-rule="evenodd" d="M570.161 328.946H490.361C489.853 328.946 489.442 328.534 489.442 328.026V323.401C489.442 322.892 489.853 322.481 490.361 322.481H570.161C570.669 322.481 571.082 322.892 571.082 323.401V328.026C571.082 328.534 570.669 328.946 570.161 328.946Z" fill="#3D1D18"/>
<path fill-rule="evenodd" clip-rule="evenodd" d="M493.029 250.829H567.656C568.896 250.829 569.902 251.835 569.902 253.076V262.244C569.902 263.484 568.896 264.49 567.656 264.49H493.029C491.789 264.49 490.783 263.484 490.783 262.244V253.076C490.783 251.835 491.789 250.829 493.029 250.829Z" fill="#713B28"/>
<path fill-rule="evenodd" clip-rule="evenodd" d="M519.366 264.491L485.458 373.791H479.274L501.227 264.491H519.366Z" fill="#713B28"/>
<path fill-rule="evenodd" clip-rule="evenodd" d="M501.227 264.491H519.366L517.093 271.818L499.336 273.9L501.227 264.491Z" fill="#3D1D18"/>
<path fill-rule="evenodd" clip-rule="evenodd" d="M581.597 373.791H575.413L541.505 264.491H559.641L560.099 266.775H560.101L581.597 373.791Z" fill="#713B28"/>
<path fill-rule="evenodd" clip-rule="evenodd" d="M560.099 266.775L542.842 268.8L541.505 264.491H559.641L560.099 266.775Z" fill="#3D1D18"/>
<path fill-rule="evenodd" clip-rule="evenodd" d="M569.199 314.886H491.325C490.285 314.886 489.442 314.044 489.442 313.003V310.303C489.442 309.263 490.285 308.42 491.325 308.42H569.199C570.239 308.42 571.082 309.263 571.082 310.303V313.003C571.082 314.044 570.239 314.886 569.199 314.886Z" fill="#713B28"/>
<path fill-rule="evenodd" clip-rule="evenodd" d="M407.916 66.9057H521.174V7.03564H407.916V66.9057Z" fill="#713B28"/>
<path fill-rule="evenodd" clip-rule="evenodd" d="M411.801 63.0212H517.289V10.9209H411.801V63.0212Z" fill="#E3CAB8"/>
<path fill-rule="evenodd" clip-rule="evenodd" d="M413.459 61.3631H515.631V12.5796H413.459V61.3631Z" fill="#FFFFFE"/>
<path fill-rule="evenodd" clip-rule="evenodd" d="M418.348 57.312H510.742V16.6301H418.348V57.312Z" fill="#EB9462"/>
<path fill-rule="evenodd" clip-rule="evenodd" d="M485.677 41.7569C485.677 50.3485 478.713 57.3121 470.122 57.3121C461.531 57.3121 454.567 50.3485 454.567 41.7569C454.567 33.1663 461.531 26.2026 470.122 26.2026C478.713 26.2026 485.677 33.1663 485.677 41.7569Z" fill="#FFFFFE"/>
<path fill-rule="evenodd" clip-rule="evenodd" d="M470.972 44.4006C470.972 44.4006 487.917 32.5606 510.742 32.3499V57.312H482.768L470.972 44.4006Z" fill="#1E3A34"/>
<path fill-rule="evenodd" clip-rule="evenodd" d="M418.348 42.0932C418.348 42.0932 436.379 33.1355 454.847 36.971C474.566 41.0661 489.653 57.3119 489.653 57.3119H418.348V42.0932Z" fill="#157663"/>
</svg>
